<svg xmlns="http://www.w3.org/2000/svg" width="24" height="24" fill="none" viewBox="0 0 24 24">
    <path fill="#000" fill-rule="evenodd" d="M19.35 7.715c-.313-.312-.82-.312-1.131 0l-7.968 7.968-4.768-4.768c-.316-.294-.807-.285-1.111.02-.305.304-.314.795-.02 1.11l5.333 5.334c.313.312.819.312 1.13 0l8.534-8.534c.312-.312.312-.818 0-1.13z" clip-rule="evenodd"/>
    <mask id="prefix__a" width="16" height="11" x="4" y="7" maskUnits="userSpaceOnUse">
        <path fill="#fff" fill-rule="evenodd" d="M19.35 7.715c-.313-.312-.82-.312-1.131 0l-7.968 7.968-4.768-4.768c-.316-.294-.807-.285-1.111.02-.305.304-.314.795-.02 1.11l5.333 5.334c.313.312.819.312 1.13 0l8.534-8.534c.312-.312.312-.818 0-1.13z" clip-rule="evenodd"/>
    </mask>
    <g mask="url(#prefix__a)">
        <path fill="#fff" d="M0 0H24V24H0z"/>
    </g>
</svg>
