<?xml version="1.0" encoding="UTF-8"?>
<svg width="86px" height="84px" viewBox="0 0 86 84" version="1.1" xmlns="http://www.w3.org/2000/svg" xmlns:xlink="http://www.w3.org/1999/xlink">
    <title>Group 10</title>
    <defs>
        <path d="M73.9166667,20.0846154 C72.4722222,18.6384615 70.3055556,18.6384615 68.8611111,20.0846154 L31.6666667,57.3230769 L16.1388889,41.7769231 C14.6944444,40.3307692 12.5277778,40.3307692 11.0833333,41.7769231 C9.63888889,43.2230769 9.63888889,45.3923077 11.0833333,46.8384615 L29.1388889,64.9153846 C29.8611111,65.6384615 30.5833333,66 31.6666667,66 C32.75,66 33.4722222,65.6384615 34.1944444,64.9153846 L73.9166667,25.1461538 C75.3611111,23.7 75.3611111,21.5307692 73.9166667,20.0846154 Z" id="path-1"></path>
    </defs>
    <g id="Page-1" stroke="none" stroke-width="1" fill="none" fill-rule="evenodd">
        <g id="Group-10">
            <rect id="state-copy-2" x="2.20268248e-13" y="0" width="85.2409091" height="84"></rect>
            <mask id="mask-2" fill="white">
                <use xlink:href="#path-1"></use>
            </mask>
            <use id="Mask" fill="#43C889" fill-rule="nonzero" xlink:href="#path-1"></use>
        </g>
    </g>
</svg>