programa,cycle,catalog_code,name_course,id_curso,email_supervisor,email_coordinator,name_coordinator,credits,hora_semana,pre-requisito,modalidad,id_facultad,facultad,fundamentation,sumilla,logro_de_aprendizaje,formulas_evaluacion,Descripción de la evaluación,reglas,reglas,metodologia,nro_unidad,titulo_unidad,logro_especifico_aprendizaje,tema_sesion,actividades_descripcion,nro_semanas_por_unidad,evaluaciones_semana,
,8,100000A30Q,EQUIPOS E INSTALACIONES ESPECIALES,,pvera@utp.edu.pe,jlopezq@utp.edu.pe,Julio Gonzalo López Quijano,3,3,,Presencial,,ARQUITECTURA,,,,,,,,,,,,,,,,
,8,100000A32Q,TALLER DE DISEÑO ARQUITECTONICO VIII,,pvera@utp.edu.pe,jlopezq@utp.edu.pe,Julio Gonzalo López Quijano,5,6,,Presencial,,ARQUITECTURA,,,,,,,,,,,,,,,,
,8,100000A34Q,TERRITORIO SOSTENIBLE I,,pvera@utp.edu.pe,jlopezq@utp.edu.pe,Julio Gonzalo López Quijano,3,3,,Presencial,,ARQUITECTURA,,,,,,,,,,,,,,,,
,9,100000C00P,MARKETING EMPRESARIAL,,lcardenas@utp.edu.pe,zmanzaneda@utp.edu.pe,Zendy Manzaneda Cipriani,3,3,,Presencial,,COMUNICACIÓN Y PUBLICIDAD,,,,,,,,,,,,,,,,
,9,100000C01P,NEUROBRANDING,,lcardenas@utp.edu.pe,zmanzaneda@utp.edu.pe,Zendy Manzaneda Cipriani,3,3,,Presencial,,COMUNICACIÓN Y PUBLICIDAD,,,,,,,,,,,,,,,,
,9,100000C02P,MARKETING MOVIL,,lcardenas@utp.edu.pe,zmanzaneda@utp.edu.pe,Zendy Manzaneda Cipriani,3,3,,Presencial,,COMUNICACIÓN Y PUBLICIDAD,,,,,,,,,,,,,,,,
,9,100000C03P,NEGOCIOS Y CONTRATACION DE MEDIOS,,lcardenas@utp.edu.pe,zmanzaneda@utp.edu.pe,Zendy Manzaneda Cipriani,4,4,,Presencial,,COMUNICACIÓN Y PUBLICIDAD,,,,,,,,,,,,,,,,
,10,100000C31V,TALLER DE INVESTIGACION - CIVIL,,jpierola@utp.edu.pe,bvilavila@utp.edu.pe,Betzabet Evelin Vilavila Noriega,4,4,,Presencial,,INGENIERÍA CIVIL,,,,,,,,,,,,,,,,
,9,100000C34P,CURSO INTEGRADOR II - COMUNICACIÓN Y PUBLICIDAD,,lcardenas@utp.edu.pe,zmanzaneda@utp.edu.pe,Zendy Manzaneda Cipriani,4,6,,Presencial,,COMUNICACIÓN Y PUBLICIDAD,,,,,,,,,,,,,,,,
,9,100000C36P,FORMACION PARA LA INVESTIGACION - COMUNICACION Y PUBLICIDAD,,lcardenas@utp.edu.pe,zmanzaneda@utp.edu.pe,Zendy Manzaneda Cipriani,4,4,,Presencial,,COMUNICACIÓN Y PUBLICIDAD,,,,,,,,,,,,,,,,
,6,100000D14H,DERECHO PENAL ESPECIAL,,dmalapi@utp.edu.pe,gespejo@utp.edu.pe,Inocenta Gladys Espejo de Wong,3,3,,Presencial,,DERECHO (B18),,,,,,,,,,,,,,,,
,6,100000D15H,DERECHO PROCESAL ADMINISTRATIVO,,dmalapi@utp.edu.pe,gespejo@utp.edu.pe,Inocenta Gladys Espejo de Wong,3,3,,Presencial,,DERECHO (B18),,,,,,,,,,,,,,,,
,6,100000D16H,DERECHO TRIBUTARIO GENERAL,,dmalapi@utp.edu.pe,gespejo@utp.edu.pe,Inocenta Gladys Espejo de Wong,3,4,,Presencial,,DERECHO,,,,,,,,,,,,,,,,
,6,100000D17H,DERECHO PROCESAL CIVIL II,,dmalapi@utp.edu.pe,gespejo@utp.edu.pe,Inocenta Gladys Espejo de Wong,3,4,,Presencial,,DERECHO (B18),,,,,,,,,,,,,,,,
,6,100000D18H,CURSO INTEGRADOR I: INTERDISCIPLINARIAS,,dmalapi@utp.edu.pe,gespejo@utp.edu.pe,Inocenta Gladys Espejo de Wong,5,6,,Presencial,,DERECHO (Malla nueva),,,,,,,,,,,,,,,,
,7,100000D19H,DERECHO PENAL ECONOMICO,,dmalapi@utp.edu.pe,gespejo@utp.edu.pe,Inocenta Gladys Espejo de Wong,3,4,,Presencial,,DERECHO (B18),,,,,,,,,,,,,,,,
,7,100000D20H,DERECHO TRIBUTARIO ESPECIAL,,dmalapi@utp.edu.pe,gespejo@utp.edu.pe,Inocenta Gladys Espejo de Wong,3,4,,Presencial,,DERECHO (B18),,,,,,,,,,,,,,,,
,7,100000D21H,CONTRATOS,,dmalapi@utp.edu.pe,gespejo@utp.edu.pe,Inocenta Gladys Espejo de Wong,4,4,,Presencial,,DERECHO (B18),,,,,,,,,,,,,,,,
,7,100000D22H,DERECHO REGISTRAL Y NOTARIAL,,dmalapi@utp.edu.pe,gespejo@utp.edu.pe,Inocenta Gladys Espejo de Wong,3,3,,Presencial,,DERECHO (B18),,,,,,,,,,,,,,,,
,8,100000D25H,FORMACION PARA LA INVESTIGACION - DERECHO,,dmalapi@utp.edu.pe,gespejo@utp.edu.pe,Inocenta Gladys Espejo de Wong,4,4,,Presencial,,DERECHO (B18),,,,,,,,,,,,,,,,
,8,100000D26H,TRIBUTACION MUNICIPAL Y REGIONAL,,dmalapi@utp.edu.pe,gespejo@utp.edu.pe,Inocenta Gladys Espejo de Wong,3,3,,Presencial,,DERECHO (B18),,,,,,,,,,,,,,,,
,8,100000D27H,DERECHO DE LA PROPIEDAD INTELECTUAL Y DERECHO DEL CONSUMIDOR,,dmalapi@utp.edu.pe,gespejo@utp.edu.pe,Inocenta Gladys Espejo de Wong,4,4,,Presencial,,DERECHO (B18),,,,,,,,,,,,,,,,
,8,100000D28H,DERECHO INTERNACIONAL PRIVADO,,dmalapi@utp.edu.pe,gespejo@utp.edu.pe,Inocenta Gladys Espejo de Wong,3,4,,Presencial,,DERECHO (B18),,,,,,,,,,,,,,,,
,8,100000D29H,DERECHO PROCESAL LABORAL,,dmalapi@utp.edu.pe,gespejo@utp.edu.pe,Inocenta Gladys Espejo de Wong,3,3,,Presencial,,DERECHO (B18),,,,,,,,,,,,,,,,
,9,100000D30H,TALLER DE INVESTIGACION - DERECHO,,dmalapi@utp.edu.pe,gespejo@utp.edu.pe,Inocenta Gladys Espejo de Wong,2,2,,Presencial,,DERECHO (B18),,,,,,,,,,,,,,,,
,9,100000D31H,CURSO INTEGRADOR II: DERECHO Y JURISPRUDENCIA,,dmalapi@utp.edu.pe,gespejo@utp.edu.pe,Inocenta Gladys Espejo de Wong,5,6,,Presencial,,DERECHO (B18),,,,,,,,,,,,,,,,
,10,100000D32H,SEMINARIO TALLER DE DERECHO PROCESAL PENAL,,dmalapi@utp.edu.pe,gespejo@utp.edu.pe,Inocenta Gladys Espejo de Wong,4,4,,Presencial,,DERECHO,,,,,,,,,,,,,,,,
,10,100000D33H,DERECHO ADUANERO,,dmalapi@utp.edu.pe,gespejo@utp.edu.pe,Inocenta Gladys Espejo de Wong,3,3,,Presencial,,DERECHO,,,,,,,,,,,,,,,,
,10,100000D34H,INVESTIGACION PROFESIONAL - DERECHO,,dmalapi@utp.edu.pe,gespejo@utp.edu.pe,Inocenta Gladys Espejo de Wong,3,4,,Presencial,,DERECHO,,,,,,,,,,,,,,,,
,10,100000D35H,ETICA PROFESIONAL - DERECHO,,dmalapi@utp.edu.pe,gespejo@utp.edu.pe,Inocenta Gladys Espejo de Wong,3,3,,Presencial,,DERECHO,,,,,,,,,,,,,,,,
,7,100000DH26,GESTION PUBLICA,,dmalapi@utp.edu.pe,gespejo@utp.edu.pe,Inocenta Gladys Espejo de Wong,3,3,,Presencial,,DERECHO (B18),,,,,,,,,,,,,,,,
,9,100000DH37,DERECHO PROCESAL PENAL Y LITIGACION ORAL II,,dmalapi@utp.edu.pe,gespejo@utp.edu.pe,Inocenta Gladys Espejo de Wong,4,4,,Presencial,,DERECHO (B18),,,,,,,,,,,,,,,,
,9,100000DH38,PROYECTOS DE INVERSION,,dmalapi@utp.edu.pe,gespejo@utp.edu.pe,Inocenta Gladys Espejo de Wong,3,3,,Presencial,,DERECHO (B18),,,,,,,,,,,,,,,,
,9,100000DH39,DERECHO PROCESAL TRIBUTARIO,,dmalapi@utp.edu.pe,gespejo@utp.edu.pe,Inocenta Gladys Espejo de Wong,3,4,,Presencial,,DERECHO (B18),,,,,,,,,,,,,,,,
,9,100000DH41,DERECHO COMERCIAL,,dmalapi@utp.edu.pe,gespejo@utp.edu.pe,Inocenta Gladys Espejo de Wong,3,4,,Presencial,,DERECHO (B18),,,,,,,,,,,,,,,,
,10,100000DH43,SEMINARIO DE GESTION PUBLICA,,dmalapi@utp.edu.pe,gespejo@utp.edu.pe,Inocenta Gladys Espejo de Wong,4,4,,Presencial,,DERECHO,,,,,,,,,,,,,,,,
,10,100000DH46,CLINICA JURIDICA,,dmalapi@utp.edu.pe,gespejo@utp.edu.pe,Inocenta Gladys Espejo de Wong,3,4,,Presencial,,DERECHO,,,,,,,,,,,,,,,,
,8,100000DH74,DERECHO PROCESAL PENAL Y LITIGACION ORAL I,,dmalapi@utp.edu.pe,gespejo@utp.edu.pe,Inocenta Gladys Espejo de Wong,3,4,,Presencial,,DERECHO (B18),,,,,,,,,,,,,,,,
,5,100000E02M,COMPORTAMIENTO HUMANO EN LAS ORGANIZACIONES,,eholguin@utp.edu.pe,episcoya@utp.edu.pe,Esteban Augusto Piscoya Adams,4,5,,Presencial,,INGENIERÍA EMPRESARIAL,,,,,,,,,,,,,,,,
,4,100000E04N,BIOLOGIA MOLECULAR Y GENETICA,,dchampin@utp.edu.pe,mvillalobo@utp.edu.pe,Margareth Nerly Villalobos Guiza,3,4,,Presencial,,ENFERMERÍA,,,,,,,,,,,,,,,,
,4,100000E05N,ENFERMERIA BASICA,,dchampin@utp.edu.pe,mvillalobo@utp.edu.pe,Margareth Nerly Villalobos Guiza,5,7,,Presencial,,ENFERMERÍA,,,,,,,,,,,,,,,,
,8,100000E07M,TECNOLOGIA APLICADA AL ANALISIS DE DATOS,,eholguin@utp.edu.pe,episcoya@utp.edu.pe,Esteban Augusto Piscoya Adams,4,4,,Presencial,,INGENIERÍA EMPRESARIAL,,,,,,,,,,,,,,,,
,4,100000N08U,SALUD Y COMUNIDAD III,,dchampin@utp.edu.pe,mvillalobo@utp.edu.pe,Margareth Nerly Villalobos Guiza,2,3,,Presencial,,ENFERMERÍA,,,,,,,,,,,,,,,,
,4,100000S09A,ORGANIZACION Y FUNCION DEL CUERPO HUMANO II,,dchampin@utp.edu.pe,mvillalobo@utp.edu.pe,Margareth Nerly Villalobos Guiza,5,7,,Presencial,,ENFERMERÍA,,,,,,,,,,,,,,,,
,7,100000E11M,FINANZAS CORPORATIVAS I,,eholguin@utp.edu.pe,episcoya@utp.edu.pe,Esteban Augusto Piscoya Adams,3,3,,Presencial,,INGENIERÍA EMPRESARIAL,,,,,,,,,,,,,,,,
,4,100000N04U,"TECNICAS DIETETICAS, GASTRONOMIA Y ALIMENTOS DEL PERU",,dchampin@utp.edu.pe,mvillalobo@utp.edu.pe,Margareth Nerly Villalobos Guiza,3,4,,Presencial,,NUTRICIÓN Y DIETÉTICA,,,,,,,,,,,,,,,,
,4,100000N05U,"BIOLOGIA MOLEC, METABOL DE NUTRIENTES Y NUTRIGENETICA",,dchampin@utp.edu.pe,mvillalobo@utp.edu.pe,Margareth Nerly Villalobos Guiza,4,5,,Presencial,,NUTRICIÓN Y DIETÉTICA,,,,,,,,,,,,,,,,
,4,100000N06U,HIGIENE Y MICROBIOLOGIA ALIMENTARIA,,dchampin@utp.edu.pe,mvillalobo@utp.edu.pe,Margareth Nerly Villalobos Guiza,3,4,,Presencial,,NUTRICIÓN Y DIETÉTICA,,,,,,,,,,,,,,,,
,4,100000O04B,BIOLOGIA MOLECULAR Y GENETICA,,dchampin@utp.edu.pe,mvillalobo@utp.edu.pe,Margareth Nerly Villalobos Guiza,3,4,,Presencial,,OBSTETRICIA,,,,,,,,,,,,,,,,
,4,100000S10A,BIOESTADISTICA,,dchampin@utp.edu.pe,mvillalobo@utp.edu.pe,Margareth Nerly Villalobos Guiza,3,3,,Presencial,,TECN. MÉDICA - TERAPIA FÍSICA,,,,,,,,,,,,,,,,
,4,100000T08F,BIOMECANICA DEL MOVIMIENTO,,dchampin@utp.edu.pe,mvillalobo@utp.edu.pe,Margareth Nerly Villalobos Guiza,2,3,,Presencial,,TECN. MÉDICA - TERAPIA FÍSICA,,,,,,,,,,,,,,,,
,10,100000E10M,Taller de investigación - Empresarial,,dchampin@utp.edu.pe,gcarrillo@utp.edu.pe,Gonzalo Alberto Carrillo Ureta,4,4,,Presencial,,INGENIERÍA EMPRESARIAL,,,,,,,,,,,,,,,,
,5,100000C01M,Generación de formas orgánicas,,eholguin@utp.edu.pe,episcoya@utp.edu.pe,Esteban Augusto Piscoya Adams,3,4,,Presencial,,ING. DE DISEÑO COMPUTACIONAL,,,,,,,,,,,,,,,,
,7,100000C05M,Gráfica computacional,,eholguin@utp.edu.pe,episcoya@utp.edu.pe,Esteban Augusto Piscoya Adams,3,3,,Presencial,,ING. DE DISEÑO COMPUTACIONAL,,,,,,,,,,,,,,,,
,7,100000C06M,Introducción al diseño de efectos especiales,,eholguin@utp.edu.pe,episcoya@utp.edu.pe,Esteban Augusto Piscoya Adams,3,3,,Presencial,,ING. DE DISEÑO COMPUTACIONAL,,,,,,,,,,,,,,,,
,4,100000C02M,Lenguaje de medios audiovisuales,,eholguin@utp.edu.pe,episcoya@utp.edu.pe,Esteban Augusto Piscoya Adams,3,3,,Presencial,,ING. DE DISEÑO COMPUTACIONAL,,,,,,,,,,,,,,,,
,9,100000S15L,Estrategias de gestión para la sostenibilidad ambiental,,eholguin@utp.edu.pe,equirozs@utp.edu.pe,Eduardo Ronny Quiroz Sanchez,3,3,,Presencial,,ING. EN SEGURIDAD LAB. Y AMB.,,,,,,,,,,,,,,,,
,5,100000NI45,Matemática financiera-Ing.,,eholguin@utp.edu.pe,ocuya@utp.edu.pe,Yemi Salvatierra,4,4,,Presencial,,ING. ECONOMICA Y EMPRESARIAL,,,,,,,,,,,,,,,,
,7,100000D23H,DERECHO LABORAL,,dmalapi@utp.edu.pe,gespejo@utp.edu.pe,Inocenta Gladys Espejo de Wong,4,4,,Presencial,,DERECHO,,,,,,,,,,,,,,,,
,13,100000D70F,CONTRATOS MODERNOS,,dmalapi@utp.edu.pe,gespejo@utp.edu.pe,Inocenta Gladys Espejo de Wong,4,4,,Presencial,,DERECHO,,,,,,,,,,,,,,,,
,13,100000D71F,DERECHO EN MINERÍA,,dmalapi@utp.edu.pe,gespejo@utp.edu.pe,Inocenta Gladys Espejo de Wong,4,4,,Presencial,,DERECHO,,,,,,,,,,,,,,,,
,11,100000M41N,METALURGIA EXTRACTIVA,,aportocarr@utp.edu.pe,c16249@utp.edu.pe,BARREDA DE LA CRUZ MIGUEL ALBERTO,3,3,,Presencial,,INGENIERÍA DE MINAS,,,,,,,,,,,,,,,,
,11,100000M38N,ELECTROTECNIA,,aportocarr@utp.edu.pe,c16249@utp.edu.pe,BARREDA DE LA CRUZ MIGUEL ALBERTO,3,3,,Presencial,,INGENIERÍA DE MINAS,,,,,,,,,,,,,,,,
,11,100000M56N,CONCENTRACION DE MINERALES,,aportocarr@utp.edu.pe,c16249@utp.edu.pe,BARREDA DE LA CRUZ MIGUEL ALBERTO,3,3,,Presencial,,INGENIERÍA DE MINAS,,,,,,,,,,,,,,,,
,11,100000M44N,SEGURIDAD MINERA II,,aportocarr@utp.edu.pe,c16249@utp.edu.pe,BARREDA DE LA CRUZ MIGUEL ALBERTO,3,3,,Presencial,,INGENIERÍA DE MINAS,,,,,,,,,,,,,,,,
,11,100000Z433,PLAN DE NEGOCIOS,,eholguin@utp.edu.pe,lhuapayaf@utp.edu.pe,"Huapaya Frías, Luis Martín",4,4,,Presencial,,ING. TEXTIL Y DE CONFECCIONES,,,,,,,,,,,,,,,,
,9,100000A37Q,TECNOLOGIA ARQUITECTONICA II,,pvera@utp.edu.pe,jlopezq@utp.edu.pe,Julio Gonzalo López Quijano,3,4,,Presencial,,ARQUITECTURA,,,,,,,,,,,,,,,,
,11,100000Z338,DINAMICA,,gromero@utp.edu.pe,mzambrano@utp.edu.pe,Mercedes Gerardo Zambrano Onofre,4,4,,Presencial,,INGENIERIA MECATRONICA (B18),,,,,,,,,,,,,,,,
,7,100000Z525,PROCESOS DE MANUFACTURA I,,gromero@utp.edu.pe,apacheco@utp.edu.pe,Arturo Pacheco Vera,4,4,,Presencial,,INGENIERIA ELECTRONICA (B18),,,,,,,,,,,,,,,,
,9,100000C23V,ABASTECIMIENTO DE AGUA Y ALCANTARILLADO,,jpierola@utp.edu.pe,bvilavila@utp.edu.pe,Betzabet Evelin Vilavila Noriega,4,4,,Presencial,,INGENIERÍA CIVIL,,,,,,,,,,,,,,,,
,7,100000ZZ29,LIDERAZGO Y CONFORMACION DE EQUIPOS,,lpinedo@utp.edu.pe,lsilvau@utp.edu.pe,Lizardo Silva Ubaldo,3,3,,Presencial,,INGENIERIA DE SOFTWARE (B18),,,,,,,,,,,,,,,,
,10,100000S42M,MANEJO DE MATERIALES PELIGROSOS,,aportocarr@utp.edu.pe,acanaza@utp.edu.pe,Alfredo Manuel Canaza Masco,3,4,,Presencial,,ING. DE SEGUR. INDUST. Y MINER,,,,,,,,,,,,,,,,
,11,100000A197,FINANZAS PUBLICAS,,aurquizo@utp.edu.pe,ipachecom@utp.edu.pe,Isaac Renato Pacheco Menendez,3,3,,Presencial,,ADMINISTRACION HOTELERA Y DE,,,,,,,,,,,,,,,,
,11,100000Z978,GESTION DE INSTITUCIONES MICROFINANCIERAS,,aurquizo@utp.edu.pe,hzavalach@utp.edu.pe,Hugo Zavala Chavez,3,3,,Presencial,,ADM. BANCA Y FINANZAS,,,,,,,,,,,,,,,,
,11,100000A955,ANALISIS DE GESTION Y BANCA MYPE,,aurquizo@utp.edu.pe,hzavalach@utp.edu.pe,Hugo Zavala Chavez,3,3,,Presencial,,ADM. BANCA Y FINANZAS,,,,,,,,,,,,,,,,
,9,100000Z973,GESTION DE INSTALACIONES HOTELERAS,,aurquizo@utp.edu.pe,ipachecom@utp.edu.pe,Isaac Renato Pacheco Menendez,3,3,,Presencial,,ADM. HOTELERA Y DE TURISMO,,,,,,,,,,,,,,,,
,7,100000N65A,CURSO COMPLEMENTO: NEGOCIACION INTERNACIONAL,,aurquizo@utp.edu.pe,lperaltal@utp.edu.pe,Luis Alberto Peralta Letiche,2,2,,Presencial,,ADM. DE NEGOCIOS INTERNACIO,,,,,,,,,,,,,,,,
,8,100000C31P,COMMUNITY MANAGER,,lcardenas@utp.edu.pe,zmanzaneda@utp.edu.pe,Zendy Manzaneda Cipriani,2,2,,Presencial,,COMUNICACIÓN Y PUBLICIDAD,,,,,,,,,,,,,,,,
,8,100000CP99,PLANES DE MEDIOS DIGITALES,,lcardenas@utp.edu.pe,zmanzaneda@utp.edu.pe,Zendy Manzaneda Cipriani,3,4,,Presencial,,COMUNICACIÓN Y PUBLICIDAD,,,,,,,,,,,,,,,,
,4,100000S16F,TECNOLOGIA CRM,,gromero@utp.edu.pe,pmolina@utp.edu.pe,Pedro Angel Molina Velarde,3,4,,Presencial,,ING. DE SISTEMAS E INFORMÁTICA,,,,,,,,,,,,,,,,
,4,100000N09O,ORGANIZACION Y FUNCION CUERPO HUMANO II NUT,,dchampin@utp.edu.pe,mvillalobo@utp.edu.pe,Margareth Nerly Villalobos Guiza,5,7,,Presencial,,NUTRICIÓN Y DIETÉTICA,,,,,,,,,,,,,,,,
,4,100000T10O,ORGANIZACION Y FUNCION CUERPO HUMANO II TF,,dchampin@utp.edu.pe,mvillalobo@utp.edu.pe,Margareth Nerly Villalobos Guiza,5,7,,Presencial,,NUTRICIÓN Y DIETÉTICA,,,,,,,,,,,,,,,,
,4,100000S04B,BIOLOGÍA MOLECULAR Y GENÉTICA,,dchampin@utp.edu.pe,mvillalobo@utp.edu.pe,Margareth Nerly Villalobos Guiza,3,4,,Presencial,,OBSTETRICIA,,,,,,,,,,,,,,,,