catalog_code,cycle_id,cycle_academic,credits,hours
100000A01N,1,1,4,4
100000A01Q,1,1,3,4
100000A12R,1,1,3,4
100000A01R,1,1,3,3
100000A01T,1,1,3,3
100000A02N,1,1,3,3
100000A02Q,1,1,3,3
100000A02R,1,1,3,4
100000A02T,1,1,3,3
100000A03N,1,1,3,3
100000RI45,1,1,3,4
100000A03Q,1,1,5,7
100000A03R,1,1,3,3
100000A03T,1,1,2,3
100000A04N,1,1,5,6
100000A04Q,1,1,3,4
100000A04R,1,1,3,3
100000A04T,1,1,3,4
100000A05Q,1,1,3,3
100000A05R,1,1,3,3
100000A05T,1,1,3,3
100000A06R,1,1,3,3
100000A06T,1,1,2,3
100000A07N,1,1,3,3
100000A07Q,1,1,6,8
100000A07R,1,1,3,3
100000A07T,1,1,3,3
100000A08Q,1,1,3,3
100000A08R,1,1,3,4
100000A08T,1,1,2,2
100000A09N,1,1,5,6
100000A09Q,1,1,3,3
100000A09R,1,1,4,4
100000A09T,1,1,3,3
100000A10N,1,1,4,4
100000A10Q,1,1,3,4
100000A10R,1,1,3,4
100000A10T,1,1,2,2
100000A11Q,1,1,6,8
100000A11R,1,1,2,2
100000A11T,1,1,4,4
100000A12Q,1,1,3,3
100000A13Q,1,1,3,3
100000A13R,1,1,3,3
100000A13T,1,1,4,4
100000A14N,1,1,4,4
100000A14Q,1,1,6,8
100000A14R,1,1,3,3
100000A15Q,1,1,4,4
100000A15R,1,1,3,4
100000A16N,1,1,4,4
100000A16R,1,1,3,3
100000A17R,1,1,3,4
100000A18N,1,1,2,3
100000A192,1,1,3,3
100000A194,1,1,3,3
100000A195,1,1,3,3
100000A196,1,1,3,3
100000A198,1,1,3,3
100000A19N,1,1,2,3
100000A200,1,1,3,3
100000CP89,1,1,4,4
100000A202,1,1,3,3
100000A203,1,1,3,3
100000A205,1,1,3,3
100000A208,1,1,3,3
100000A22N,1,1,4,4
100000A24Q,1,1,3,4
100000A25Q,1,1,3,3
100000A26N,1,1,3,4
100000A29N,1,1,4,5
100000A30N,1,1,4,4
100000A33N,1,1,3,3
100000A34N,1,1,3,3
100000A35N,1,1,3,4
100000A36N,1,1,2,2
100000A37N,1,1,3,3
100000A38N,1,1,3,3
100000A39N,1,1,2,2
100000A40N,1,1,3,3
100000A43N,1,1,2,2
100000A44N,1,1,3,3
100000A676,1,1,3,3
100000A678,1,1,3,3
100000A956,1,1,3,3
100000AN08,1,1,2,2
100000AN09,1,1,2,2
100000AN10,1,1,2,2
100000AN11,1,1,2,2
100000AN13,1,1,3,3
100000AN14,1,1,4,6
100000AN15,1,1,2,3
100000AN16,1,1,3,3
100000AN17,1,1,4,5
100000AN19,1,1,4,5
100000AN21,1,1,5,5
100000AN22,1,1,3,3
100000AN23,1,1,3,4
100000AN24,1,1,4,4
100000AN26,1,1,4,5
100000AN27,1,1,4,5
100000AN28,1,1,4,5
100000AN29,1,1,4,5
100000AN30,1,1,5,6
100000AN34,1,1,5,5
100000AN35,1,1,2,2
100000AN36,1,1,5,6
100000AN37,1,1,3,3
100000AN38,1,1,4,4
100000AN40,1,1,3,3
100000AN41,1,1,4,5
100000AN42,1,1,3,3
100000AN43,1,1,3,3
100000AN44,1,1,4,4
100000AN46,1,1,3,3
100000AN47,1,1,3,4
100000AN49,1,1,4,4
100000Z479,1,1,4,4
100000AN50,1,1,5,6
100000AN51,1,1,5,6
100000AN52,1,1,5,6
100000AN54,1,1,4,4
100000AN55,1,1,4,4
100000AN56,1,1,4,5
100000AN57,1,1,3,3
100000AN59,1,1,3,5
100000AN60,1,1,3,3
100000AN61,1,1,3,3
100000AN62,1,1,4,4
100000AN63,1,1,3,4
100000AN65,1,1,5,6
100000AN68,1,1,3,4
100000AN70,1,1,4,4
100000AN71,1,1,3,3
100000NI19,1,1,3,4
100000AN73,1,1,3,3
100000AN75,1,1,3,3
100000AN76,1,1,4,4
100000AN77,1,1,5,6
100000AN79,1,1,4,4
100000AN80,1,1,5,5
100000AN81,1,1,3,4
100000AN82,1,1,5,5
100000AN83,1,1,4,5
100000CP70,1,1,3,3
100000AN84,1,1,3,3
100000AN86,1,1,2,3
100000AN87,1,1,4,4
100000AN88,1,1,4,4
100000AN89,1,1,3,3
100000AN90,1,1,3,4
100000AN92,1,1,3,3
100000AN93,1,1,5,5
100000AN95,1,1,4,6
100000AN97,1,1,5,5
100000AN98,1,1,4,4
100000AN99,1,1,5,6
100000AP59,1,1,3,3
100000AZ00,1,1,3,3
100000AZ35,1,1,3,3
100000AZ99,1,1,3,3
100000B02M,1,1,3,4
100000B03M,1,1,3,4
100000B04M,1,1,3,4
100000B05M,1,1,3,4
100000B06M,1,1,4,4
100000B07M,1,1,2,3
100000B08M,1,1,2,2
100000B09M,1,1,2,3
100000B10M,1,1,2,2
100000B11M,1,1,4,4
100000B12M,1,1,3,4
100000B13M,1,1,3,4
100000B14M,1,1,3,4
100000B15M,1,1,3,4
100000B17M,1,1,3,3
100000C01V,1,1,2,2
100000C02V,1,1,3,3
100000C03M,1,1,2,3
100000C04M,1,1,3,4
100000C04V,1,1,3,4
100000C05V,1,1,4,4
100000C06V,1,1,3,4
100000C07M,1,1,3,3
100000C07P,1,1,4,5
100000C07V,1,1,3,4
100000C08V,1,1,3,4
100000C09M,1,1,3,3
100000C09P,1,1,4,4
100000C09V,1,1,2,3
100000C10M,1,1,3,4
100000C10P,1,1,3,3
100000C10V,1,1,3,3
100000C11M,1,1,4,4
100000C11P,1,1,3,3
100000C11V,1,1,2,3
100000C12M,1,1,2,3
100000C12P,1,1,4,6
100000C12V,1,1,2,3
100000C13V,1,1,3,4
100000C14M,1,1,3,3
100000C14P,1,1,3,4
100000D14G,1,1,3,4
100000C15P,1,1,2,3
100000C15V,1,1,4,4
100000C16P,1,1,4,4
100000C16V,1,1,2,3
100000C17M,1,1,3,3
100000C17P,1,1,3,4
100000C17V,1,1,4,4
100000C18P,1,1,3,3
100000C18V,1,1,4,4
100000C19P,1,1,3,4
100000C19V,1,1,3,3
100000C20P,1,1,4,4
100000C20V,1,1,2,3
100000C21P,1,1,4,4
100000C22P,1,1,3,3
100000C22V,1,1,4,4
100000C23P,1,1,4,4
100000C24P,1,1,3,3
100000C25P,1,1,3,3
100000C25V,1,1,4,4
100000C26P,1,1,4,6
100000C27P,1,1,3,3
100000C28P,1,1,3,4
100000C30P,1,1,3,3
100000C32P,1,1,4,6
100000C32V,1,1,3,3
100000C33P,1,1,4,6
100000C34F,1,1,4,4
100000C35P,1,1,4,4
100000C37P,1,1,4,4
100000C42F,1,1,3,3
100000C49F,1,1,4,4
100000C51F,1,1,4,4
100000C55F,1,1,4,4
100000CF51,1,1,4,4
100000CF09,1,1,3,4
100000CF13,1,1,3,4
100000CF14,1,1,3,3
100000CF17,1,1,3,4
100000CF19,1,1,4,5
100000CF20,1,1,3,3
100000CF21,1,1,3,4
100000CF23,1,1,3,4
100000CF25,1,1,4,4
100000CF26,1,1,4,4
100000CF27,1,1,4,4
100000CF28,1,1,3,3
100000CF29,1,1,4,4
100000CF30,1,1,4,4
100000CF31,1,1,3,4
100000CF32,1,1,3,3
100000CF33,1,1,3,4
100000CF34,1,1,3,4
100000CF35,1,1,4,4
100000CF36,1,1,3,3
100000CF37,1,1,4,4
100000CF39,1,1,3,4
100000CF41,1,1,4,4
100000CF42,1,1,3,4
100000CF43,1,1,3,3
100000CF44,1,1,4,4
100000CF45,1,1,4,4
100000CF48,1,1,4,4
100000CF49,1,1,3,4
100000CF52,1,1,4,4
100000CF53,1,1,4,4
100000CF55,1,1,2,2
100000CP31,1,1,3,4
100000CP34,1,1,3,3
100000CP38,1,1,3,4
100000CP43,1,1,4,4
100000CP47,1,1,5,6
100000CP49,1,1,3,3
100000CP51,1,1,3,3
100000CP52,1,1,4,4
100000CP53,1,1,3,3
100000CP57,1,1,3,3
100000CP60,1,1,3,4
100000CP61,1,1,3,4
100000CP62,1,1,3,4
100000CP65,1,1,3,3
100000CP66,1,1,2,3
100000CP67,1,1,3,3
100000CP68,1,1,3,3
100000CP71,1,1,4,4
100000CP72,1,1,3,3
100000CP74,1,1,3,3
100000CP76,1,1,3,3
100000CP78,1,1,3,3
100000CP79,1,1,3,3
100000CP80,1,1,3,3
100000CP81,1,1,3,4
100000CP82,1,1,4,4
100000CP85,1,1,4,4
100000CP86,1,1,4,4
100000CP90,1,1,3,3
100000CP91,1,1,3,4
100000CP94,1,1,4,4
100000CP95,1,1,4,4
100000D01G,1,1,3,4
100000D01T,1,1,3,4
100000D02G,1,1,3,4
100000D02T,1,1,3,3
100000D03G,1,1,3,3
100000D04G,1,1,3,3
100000D05G,1,1,3,3
100000D06G,1,1,3,3
100000D07G,1,1,3,4
100000D08G,1,1,3,4
100000D09G,1,1,3,3
100000D10G,1,1,3,3
100000D11G,1,1,2,3
100000D13G,1,1,2,3
100000D34F,1,1,4,4
100000D36F,1,1,4,4
100000D38F,1,1,4,4
100000D40F,1,1,5,5
100000D42F,1,1,4,4
100000D53F,1,1,4,4
100000D56F,1,1,3,4
100000D61F,1,1,4,4
100000DH01,1,1,3,4
100000DH02,1,1,3,3
200000DH02,1,1,3,3
100000DH03,1,1,3,3
100000DH04,1,1,3,3
100000DH05,1,1,4,4
100000DH07,1,1,3,4
100000DH08,1,1,3,4
100000DH09,1,1,4,4
100000DH10,1,1,3,4
100000DH72,1,1,3,3
100000DH11,1,1,4,4
100000DH73,1,1,4,5
100000DH12,1,1,3,4
100000DH13,1,1,3,4
100000DH14,1,1,3,4
100000DH15,1,1,4,4
100000DH16,1,1,4,4
100000DH17,1,1,4,4
100000DH18,1,1,3,4
100000DH19,1,1,4,4
100000DH20,1,1,4,4
100000DH22,1,1,3,4
100000DH23,1,1,3,4
100000DH24,1,1,3,4
100000DH25,1,1,3,4
100000DH30,1,1,4,4
100000DH31,1,1,3,4
100000DH59,1,1,3,4
100000DH32,1,1,4,4
100000DH33,1,1,3,3
100000D55F,1,1,4,4
100000DH35,1,1,4,4
100000D39F,1,1,3,4
100000DH36,1,1,3,4
100000DH40,1,1,2,2
100000DH44,1,1,3,4
100000DH45,1,1,3,4
100000DH47,1,1,5,6
100000DH48,1,1,5,6
100000DH50,1,1,3,3
100000DH51,1,1,3,4
100000DH52,1,1,3,3
100000DH54,1,1,3,3
100000DH55,1,1,3,3
100000RI07,1,1,3,3
100000DH56,1,1,3,3
100000DH60,1,1,3,3
100000DH62,1,1,4,4
100000DH63,1,1,3,4
100000DH64,1,1,3,3
100000DH65,1,1,4,4
100000DH67,1,1,3,4
100000DH69,1,1,4,4
100000DH70,1,1,3,4
100000E01C,1,1,4,4
100000E01E,1,1,5,6
100000E01L,1,1,2,3
100000E01M,1,1,2,3
100000E02C,1,1,4,4
100000E02E,1,1,3,3
100000E02L,1,1,3,4
100000E02N,1,1,2,3
100000E03C,1,1,4,4
100000E03E,1,1,2,3
100000E03M,1,1,2,3
100000E03P,1,1,3,4
100000E04E,1,1,2,3
100000E04M,1,1,3,4
100000E05E,1,1,4,4
100000E05L,1,1,2,2
100000E05M,1,1,4,4
100000E05P,1,1,4,4
100000E06E,1,1,3,3
100000E06L,1,1,2,3
100000E06P,1,1,3,4
100000E07E,1,1,2,2
100000E07L,1,1,3,4
100000E08E,1,1,2,2
100000E09E,1,1,3,3
100000E09P,1,1,3,4
100000E10E,1,1,3,3
100000E10P,1,1,3,4
100000E11E,1,1,5,6
100000E11P,1,1,4,4
100000E12E,1,1,2,3
100000E12P,1,1,3,4
100000E13P,1,1,4,4
100000E14P,1,1,3,4
100000E15P,1,1,3,4
100000E16P,1,1,3,4
100000E17P,1,1,2,2
100000E18P,1,1,4,4
100000E19P,1,1,3,4
100000E20P,1,1,4,4
100000E21P,1,1,4,4
100000E22P,1,1,4,4
100000E24P,1,1,4,4
100000E25P,1,1,3,4
100000E28P,1,1,3,3
100000E30P,1,1,4,4
100000FS33,1,1,3,3
100000H01C,1,1,3,3
100000I02N,1,1,3,4
100000I03N,1,1,5,5
100000I05N,1,1,2,3
100000I06N,1,1,4,4
100000I07N,1,1,2,2
100000I08N,1,1,4,4
100000I09N,1,1,2,2
100000I10N,1,1,2,2
100000I11N,1,1,3,4
100000I12N,1,1,3,4
100000I15N,1,1,3,4
100000I16N,1,1,3,4
100000I17N,1,1,4,4
100000I18N,1,1,4,4
100000I21N,1,1,3,4
100000I22N,1,1,4,4
100000I23N,1,1,3,4
100000I25N,1,1,3,4
100000I26N,1,1,2,3
100000I27F,1,1,4,4
100000I27N,1,1,3,3
100000I28N,1,1,4,4
100000I29N,1,1,3,3
100000I30F,1,1,2,4
100000I32N,1,1,4,4
100000I33F,1,1,3,4
100000I33N,1,1,3,3
100000I34F,1,1,4,4
100000NI41,1,1,3,3
100000I34N,1,1,3,4
100000I35N,1,1,3,4
100000I39F,1,1,3,4
100000I40F,1,1,3,3
100000I41N,1,1,4,4
100000I43N,1,1,3,4
100000I44N,1,1,3,4
100000I45N,1,1,3,4
100000I47F,1,1,3,3
100000I49N,1,1,2,2
100000I52N,1,1,3,4
100000I53N,1,1,3,4
100000I55N,1,1,3,4
100000I56F,1,1,3,3
100000I63F,1,1,3,3
100000I56N,1,1,3,4
100000I57N,1,1,2,3
100000I58N,1,1,3,4
100000I60N,1,1,4,4
100000I61N,1,1,4,4
100000I62N,1,1,4,4
100000I63N,1,1,3,3
100000I64N,1,1,3,4
100000I66N,1,1,4,4
100000I67N,1,1,4,4
100000I68N,1,1,4,4
100000I70N,1,1,2,2
100000I71N,1,1,2,3
100000I72N,1,1,4,4
100000I74N,1,1,3,4
100000I75N,1,1,3,3
100000I76N,1,1,4,4
100000I79N,1,1,3,4
100000I80N,1,1,4,4
100000I81N,1,1,3,3
100000I84N,1,1,4,4
100000I85N,1,1,4,4
100000I87N,1,1,3,3
100000I89N,1,1,3,4
100000I91O,1,1,3,4
100000I92N,1,1,3,3
100000I94N,1,1,3,3
100000I96N,1,1,2,2
100000I97N,1,1,4,6
100000I98N,1,1,3,3
100000M33N,1,1,3,3
100000M01C,1,1,3,3
100000M01N,1,1,2,2
100000M01P,1,1,3,3
100000M01Q,1,1,3,4
100000M01T,1,1,2,3
100000M02P,1,1,3,4
100000M02Q,1,1,3,3
100000M03C,1,1,4,4
100000M03P,1,1,3,3
100000M03Q,1,1,3,3
100000M04P,1,1,3,4
100000M04Q,1,1,3,4
100000M04T,1,1,4,4
100000M05N,1,1,4,4
100000M05P,1,1,3,4
100000M05Q,1,1,5,5
100000M06N,1,1,3,4
100000M06P,1,1,3,4
100000M06Q,1,1,4,4
100000M07N,1,1,3,4
100000M07T,1,1,2,3
100000M08P,1,1,3,3
100000M08T,1,1,4,4
100000M09N,1,1,3,3
100000M09P,1,1,3,3
100000M09T,1,1,4,4
100000M10N,1,1,4,4
100000M10P,1,1,3,4
100000M10T,1,1,2,3
100000M11P,1,1,3,3
100000M11T,1,1,3,4
100000M12N,1,1,4,4
100000M12P,1,1,4,4
100000M13N,1,1,3,4
100000M13P,1,1,4,4
100000M14N,1,1,3,4
100000M14P,1,1,4,5
100000M15N,1,1,4,4
100000M15P,1,1,3,4
100000M15T,1,1,4,4
100000M16P,1,1,3,4
100000M16T,1,1,3,3
100000M17P,1,1,3,3
100000M17T,1,1,4,4
100000M18N,1,1,4,4
100000M18P,1,1,4,5
100000M19F,1,1,4,4
100000M19N,1,1,4,4
100000M19P,1,1,4,4
100000M20F,1,1,4,4
100000M20P,1,1,4,4
100000M21N,1,1,3,4
100000M21P,1,1,2,2
100000N12I,1,1,2,2
100000M22N,1,1,3,4
100000M24F,1,1,4,4
100000M44F,1,1,4,4
100000N01A,1,1,5,6
100000N02I,1,1,4,4
100000N03A,1,1,4,4
100000N03I,1,1,3,3
100000N04A,1,1,4,6
100000N04I,1,1,4,4
100000N05A,1,1,4,6
100000N05I,1,1,3,3
100000N06I,1,1,3,3
100000N07I,1,1,3,3
100000N08I,1,1,3,3
100000N09I,1,1,2,2
100000N10I,1,1,3,3
100000N12F,1,1,3,4
100000N23A,1,1,2,2
100000N23F,1,1,4,4
100000N30F,1,1,3,3
100000N31F,1,1,4,4
100000N38F,1,1,3,3
100000N44F,1,1,3,3
100000N48F,1,1,3,4
100000N78A,1,1,2,3
100000NI02,1,1,2,3
100000NI03,1,1,4,4
100000NI04,1,1,4,4
100000NI05,1,1,3,3
100000NI06,1,1,3,3
100000NI07,1,1,2,3
100000NI09,1,1,3,3
100000NI11,1,1,3,3
100000NI12,1,1,3,3
100000NI13,1,1,3,3
100000NI15,1,1,3,3
100000NI17,1,1,2,4
100000NI23,1,1,4,5
100000NI24,1,1,3,3
100000NI25,1,1,3,4
100000NI26,1,1,2,2
100000NI27,1,1,4,4
100000NI28,1,1,3,3
100000NI29,1,1,4,4
100000NI30,1,1,2,3
100000NI31,1,1,3,3
100000NI32,1,1,3,3
100000NI33,1,1,3,4
100000NI36,1,1,3,3
100000NI37,1,1,3,4
100000NI38,1,1,3,3
100000NI43,1,1,3,4
100000NI44,1,1,3,3
100000PS23,1,1,3,3
100000PS27,1,1,4,5
100000PS28,1,1,4,4
100000PS31,1,1,4,5
100000PS34,1,1,4,5
100000PS40,1,1,4,4
100000PS42,1,1,3,4
100000PS43,1,1,4,5
100000PS44,1,1,3,3
100000PS47,1,1,4,5
100000PS50,1,1,3,4
100000PS51,1,1,3,3
100000PS53,1,1,3,3
100000PS54,1,1,3,3
100000PS56,1,1,4,4
100000PS57,1,1,4,5
100000PS60,1,1,13,25
100000PS61,1,1,2,2
100000PS65,1,1,3,3
100000PS66,1,1,3,3
100000R01D,1,1,4,4
100000R02D,1,1,3,4
100000R03D,1,1,3,4
100000R04D,1,1,3,4
100000R05D,1,1,3,3
100000R06D,1,1,2,3
100000R07D,1,1,3,4
100000R08D,1,1,3,4
100000R09D,1,1,3,3
100000RI05,1,1,4,4
100000RI17,1,1,4,4
100000RI23,1,1,4,4
100000RI30,1,1,3,4
100000S01A,1,1,4,4
100000S01F,1,1,4,4
100000S07T,1,1,3,8
100000S01L,1,1,3,3
100000S01M,1,1,2,2
100000S02A,1,1,5,6
100000S02G,1,1,3,4
100000S02I,1,1,2,3
100000S02L,1,1,3,3
100000S02M,1,1,2,2
100000S03A,1,1,3,3
100000S03I,1,1,3,4
100000S03L,1,1,2,3
100000S04A,1,1,1,2
100000S04F,1,1,3,3
100000S04I,1,1,3,4
100000S05A,1,1,4,5
100000S05F,1,1,2,2
100000S05G,1,1,4,4
100000S05L,1,1,3,4
100000S05M,1,1,3,4
100000S06A,1,1,3,4
100000S06F,1,1,2,3
100000S06I,1,1,3,4
100000S07F,1,1,3,3
100000S07L,1,1,2,2
100000S07M,1,1,3,4
100000S08F,1,1,2,3
100000S08G,1,1,3,4
100000S08L,1,1,3,4
100000S09F,1,1,2,3
100000S09I,1,1,3,4
100000S09M,1,1,2,4
100000S12F,1,1,3,4
100000S12I,1,1,3,3
100000S12L,1,1,2,2
100000S13I,1,1,3,3
100000S13M,1,1,3,3
100000S14F,1,1,4,4
100000S16L,1,1,3,3
100000S16M,1,1,3,4
100000S18M,1,1,3,3
100000S21M,1,1,2,2
100000S22M,1,1,3,4
100000S25M,1,1,3,3
100000S26M,1,1,3,3
100000S28M,1,1,2,3
100000S29M,1,1,3,3
100000S31M,1,1,3,3
100000S39M,1,1,3,3
100000S44M,1,1,2,2
100000S45M,1,1,3,4
100000T02L,1,1,5,6
100000T03F,1,1,4,5
100000T03L,1,1,5,6
100000T03X,1,1,3,3
100000T04X,1,1,3,3
100000T05L,1,1,3,3
100000T05X,1,1,3,3
100000T06L,1,1,3,4
100000T06X,1,1,3,3
100000T07L,1,1,3,4
100000T07X,1,1,3,3
100000T08L,1,1,3,4
100000T08X,1,1,3,4
100000T09X,1,1,3,3
100000T10L,1,1,3,4
100000T10X,1,1,3,4
100000T11L,1,1,3,3
100000T11X,1,1,3,3
100000T12X,1,1,3,4
100000T14L,1,1,3,3
100000T16L,1,1,3,3
100000T17L,1,1,3,3
100000T18L,1,1,4,4
100000T19L,1,1,3,4
100000T20L,1,1,3,3
100000T21L,1,1,3,3
100000T22L,1,1,3,4
100000T25L,1,1,4,4
100000T26L,1,1,3,4
100000T28L,1,1,3,3
100000T29L,1,1,3,4
100000W34R,1,1,3,3
100000X101,1,1,4,4
100000X103,1,1,4,4
100000X104,1,1,5,5
100000Z408,1,1,4,4
100000Z546,1,1,4,4
100000Z547,1,1,4,4
100000Z831,1,1,3,3
100000Z970,1,1,3,3
100000Z979,1,1,3,3
100000Z980,1,1,3,3
100000ZZ31,1,1,4,4
100000ZZ67,1,1,3,3
100000ZZ68,1,1,3,3
200000A13N,1,1,4,6
200000AN69,1,1,4,4
200000AZ12,1,1,2,2
200000E01N,1,1,2,3
200000M05T,1,1,2,3
200000N01U,1,1,2,3
200000N21F,1,1,3,3
200000N26F,1,1,3,3
200000N29F,1,1,3,3
200000N32F,1,1,3,3
200000O01B,1,1,2,3
200000S10F,1,1,3,4
200000X102,1,1,3,3
300000AZ24,1,1,2,2
100000I99N,1,1,2,4
100000A05N,1,1,5,6
100000A06N,1,1,5,6
100000A06Q,1,1,3,3
100000A10F,1,1,4,4
100000A12F,1,1,4,4
100000A12T,1,1,2,3
100000A15F,1,1,3,3
100000A15N,1,1,5,6
100000A16F,1,1,4,5
100000A16Q,1,1,3,3
100000A17F,1,1,4,4
100000A17Q,1,1,3,3
100000A18Q,1,1,5,6
100000A19Q,1,1,3,4
100000A20Q,1,1,4,4
100000A212,1,1,3,3
100000A215,1,1,3,3
100000A21Q,1,1,3,3
100000A22Q,1,1,3,3
100000A23N,1,1,4,4
100000A23Q,1,1,5,6
100000A24N,1,1,5,6
100000A27N,1,1,5,5
100000A29Q,1,1,5,6
100000A32N,1,1,3,3
100000A43Q,1,1,3,3
100000A47F,1,1,3,3
100000A674,1,1,3,3
100000A677,1,1,3,3
100000A941,1,1,3,3
100000AE13,1,1,3,3
100000AN12,1,1,2,2
100000AN18,1,1,4,4
100000AN25,1,1,4,5
100000AN33,1,1,2,2
100000AN45,1,1,3,3
100000AN48,1,1,3,3
100000AN53,1,1,4,5
100000AN58,1,1,4,4
100000AN64,1,1,3,3
100000AN66,1,1,3,4
100000AN67,1,1,4,4
100000AN72,1,1,3,3
100000AN78,1,1,3,3
100000AN94,1,1,5,5
100000AN96,1,1,3,3
100000AP83,1,1,3,3
100000AP84,1,1,3,3
100000AP88,1,1,3,3
100000B02F,1,1,3,4
100000B16M,1,1,4,4
100000B29F,1,1,3,3
100000B30F,1,1,3,3
100000C08P,1,1,4,5
100000C14V,1,1,3,3
100000C16M,1,1,4,4
100000C29P,1,1,4,4
100000C47F,1,1,4,4
100000C48F,1,1,4,4
100000C50F,1,1,4,4
100000C52F,1,1,3,3
100000C53F,1,1,4,4
100000C54F,1,1,4,4
100000C56F,1,1,4,4
100000C57F,1,1,4,4
100000C64F,1,1,3,3
100000C69F,1,1,3,3
100000CF16,1,1,3,3
100000CF38,1,1,3,3
100000CF40,1,1,3,4
100000CF46,1,1,3,3
100000CF47,1,1,3,3
100000CF54,1,1,2,2
100000CP32,1,1,3,4
100000CP33,1,1,3,3
100000CP35,1,1,3,4
100000CP37,1,1,2,2
100000CP39,1,1,4,4
100000CP40,1,1,3,4
100000CP41,1,1,3,4
100000CP42,1,1,3,3
100000CP44,1,1,3,4
100000CP45,1,1,4,4
100000CP48,1,1,3,5
100000CP50,1,1,4,4
100000CP54,1,1,3,3
100000CP55,1,1,3,3
100000CP56,1,1,4,4
100000CP58,1,1,4,4
100000CP59,1,1,3,3
100000CP63,1,1,3,4
100000CP64,1,1,3,3
100000CP69,1,1,4,4
100000CP73,1,1,4,4
100000CP75,1,1,4,5
100000CP77,1,1,3,3
100000CP84,1,1,3,3
100000CP87,1,1,4,5
100000CP88,1,1,3,3
100000CP92,1,1,3,3
100000CP93,1,1,3,3
100000D03T,1,1,4,4
100000D12G,1,1,4,4
100000D37F,1,1,3,3
100000DH29,1,1,3,4
100000D44F,1,1,3,3
100000D45F,1,1,3,3
100000D46F,1,1,3,3
100000D54F,1,1,3,3
100000D62F,1,1,3,3
100000D63F,1,1,2,2
100000D65F,1,1,3,3
100000DH21,1,1,3,4
100000DH27,1,1,3,4
100000DH28,1,1,4,5
100000DH49,1,1,3,3
100000DH57,1,1,3,3
100000DH58,1,1,4,4
100000DH61,1,1,4,3
100000DH68,1,1,3,3
100000DH71,1,1,3,4
100000T01L,1,1,2,2
100000E01P,1,1,2,2
100000E02P,1,1,2,2
100000E04P,1,1,3,4
100000E07P,1,1,3,4
100000E08L,1,1,4,4
100000E08P,1,1,3,3
100000E13E,1,1,4,4
100000E23P,1,1,3,4
100000E26P,1,1,4,4
100000E27P,1,1,3,4
100000E29P,1,1,4,4
100000FS09,1,1,4,4
100000FS21,1,1,4,4
100000FS22,1,1,3,3
100000FS31,1,1,3,3
100000I46N,1,1,4,4
100000FS32,1,1,3,3
100000G10F,1,1,3,3
100000G11F,1,1,4,5
100000G14F,1,1,3,3
100000G15F,1,1,4,5
100000G18F,1,1,3,3
100000G20F,1,1,3,3
100000H03F,1,1,3,3
100000H05F,1,1,3,3
100000H08F,1,1,3,3
100000H09F,1,1,4,4
100000H14F,1,1,3,3
100000H18F,1,1,3,3
100000H20F,1,1,4,4
100000I01N,1,1,2,2
100000I04N,1,1,2,2
100000I13N,1,1,3,3
100000I14N,1,1,2,2
100000I19N,1,1,4,4
100000I20N,1,1,3,4
100000I24N,1,1,2,3
100000I30N,1,1,3,3
100000I31N,1,1,4,4
100000I36N,1,1,3,4
100000I37N,1,1,4,4
100000I38N,1,1,3,3
100000I39N,1,1,2,3
100000I40N,1,1,3,3
100000I42N,1,1,2,3
100000I47N,1,1,3,4
100000I48N,1,1,4,4
100000I50N,1,1,3,4
100000I51N,1,1,2,2
100000I54N,1,1,3,4
100000I59N,1,1,3,4
100000I65N,1,1,3,4
100000I69N,1,1,4,4
100000I77N,1,1,4,4
100000I78N,1,1,3,4
100000I82N,1,1,3,4
100000I83N,1,1,3,4
100000I86N,1,1,3,4
100000I93N,1,1,3,4
100000I95N,1,1,3,3
100000K12F,1,1,4,4
100000K13F,1,1,4,4
100000K14F,1,1,4,4
100000K16F,1,1,3,3
100000K17F,1,1,4,4
100000K18F,1,1,3,3
100000K20F,1,1,4,4
100000K32F,1,1,3,3
100000M02C,1,1,4,4
100000M02N,1,1,3,4
100000M02T,1,1,5,6
100000M03N,1,1,5,6
100000M03T,1,1,3,4
100000M04N,1,1,4,4
100000M06T,1,1,4,4
100000M07P,1,1,3,4
100000M08N,1,1,3,3
100000M10F,1,1,4,4
100000M11N,1,1,4,4
100000M12T,1,1,4,4
100000M13T,1,1,2,3
100000M16N,1,1,4,4
100000M17N,1,1,3,4
100000M20N,1,1,4,4
100000M23F,1,1,4,4
100000M25F,1,1,4,4
100000N01I,1,1,4,4
100000N06A,1,1,3,4
100000N11I,1,1,3,3
100000N33F,1,1,4,4
100000N87A,1,1,3,3
100000N88A,1,1,3,3
100000NI01,1,1,3,3
100000NI08,1,1,3,3
100000NI10,1,1,3,3
100000NI14,1,1,4,4
100000NI16,1,1,3,4
100000NI18,1,1,3,3
100000NI20,1,1,3,4
100000NI22,1,1,3,3
100000NI34,1,1,3,3
100000NI39,1,1,4,4
100000NI40,1,1,4,4
100000PS21,1,1,4,4
100000PS22,1,1,3,3
100000PS25,1,1,4,4
100000PS26,1,1,2,3
100000PS29,1,1,4,4
100000PS30,1,1,3,4
100000PS32,1,1,4,4
100000PS33,1,1,3,3
100000PS35,1,1,4,4
100000PS36,1,1,4,5
100000PS37,1,1,4,4
100000PS38,1,1,4,5
100000PS39,1,1,4,4
100000PS41,1,1,4,4
100000PS45,1,1,3,3
100000PS46,1,1,4,4
100000PS49,1,1,4,4
100000PS52,1,1,2,2
100000PS55,1,1,4,4
100000PS58,1,1,3,3
100000PS64,1,1,3,4
100000RI11,1,1,4,4
100000RI13,1,1,3,4
100000RI16,1,1,3,3
100000RI18,1,1,4,4
100000RI19,1,1,3,4
100000RI20,1,1,4,4
100000RI21,1,1,3,4
100000RI22,1,1,3,4
100000RI25,1,1,4,4
100000RI26,1,1,4,4
100000RI27,1,1,3,3
100000RI28,1,1,4,4
100000RI29,1,1,4,4
100000RI32,1,1,3,3
100000RI33,1,1,3,3
100000RI35,1,1,5,6
100000S01G,1,1,3,4
100000S02F,1,1,3,3
100000S03F,1,1,2,3
100000S03G,1,1,3,4
100000S03M,1,1,3,4
100000S04G,1,1,3,4
100000S04L,1,1,3,4
100000S04M,1,1,2,2
100000S06G,1,1,3,4
100000S06L,1,1,4,4
100000S06M,1,1,3,3
100000S07G,1,1,3,4
100000S07I,1,1,4,4
100000S08I,1,1,3,4
100000S08M,1,1,3,4
100000S09G,1,1,3,4
100000S09L,1,1,2,2
100000S10G,1,1,4,4
100000S10I,1,1,4,4
100000S10L,1,1,3,3
100000S10M,1,1,3,3
100000S11F,1,1,3,4
100000S11I,1,1,4,4
100000S11L,1,1,3,3
100000S11M,1,1,3,4
100000S12M,1,1,2,3
100000S13F,1,1,2,3
100000S14M,1,1,3,3
100000S15F,1,1,4,4
100000S15M,1,1,3,3
100000S17M,1,1,4,4
100000S19M,1,1,3,3
100000S20M,1,1,4,4
100000S23M,1,1,4,4
100000S27M,1,1,3,3
100000S32M,1,1,3,3
100000T01X,1,1,3,4
100000T02X,1,1,3,3
100000T04L,1,1,3,3
100000T09L,1,1,3,4
100000T12L,1,1,3,4
100000T13L,1,1,3,4
100000T13X,1,1,4,4
100000T23L,1,1,4,4
100000T24L,1,1,4,4
100000Z739,1,1,4,4
100000Z981,1,1,3,3
200000A181,1,1,3,3
200000AN20,1,1,5,6
100000AN91,1,1,4,5
200000N25F,1,1,3,3
200000NI21,1,1,3,3
200000T02F,1,1,2,3
100000A20N,1,1,4,4
100000B01M,1,1,2,3
100000CF50,1,1,3,4
100000DH06,1,1,3,3
100000DH66,1,1,3,3
100000N02A,1,1,5,6
100000N08A,1,1,2,3
100000N43A,1,1,2,2
100000RI14,1,1,3,3
100000RI31,1,1,3,3
100000RI34,1,1,3,3
100000A31N,1,1,4,4
100000RI43,1,1,4,4
100000RI36,1,1,5,6
100000RI04,1,1,4,4
100000RI38,1,1,3,4
100000RI42,1,1,3,3
100000I88N,1,1,2,2
100000RI12,1,1,3,4
100000C23F,1,1,4,4
100000DH53,1,1,3,3
100000M45F,1,1,4,4
100000CP97,1,1,3,4
100000ZZ70,1,1,3,3
100000S41M,1,1,3,3
100000S33M,1,1,4,4
100000S30M,1,1,4,4
100000S24M,1,1,4,4
100000N47F,1,1,4,4
100000M09F,1,1,3,4
100000I73N,1,1,2,3
100000A21N,1,1,4,5
100000A201,1,1,3,3
100000AN74,1,1,4,5
100000A17N,1,1,4,4
100000A25N,1,1,4,4
100000A28N,1,1,4,4
100000CP36,1,1,4,4
100000N07A,1,1,2,3
100000NI35,1,1,3,3
100000AN31,1,1,5,5
100000C03V,1,1,3,4
100000C13P,1,1,3,3
100000CP46,1,1,3,4
100000NI42,1,1,3,3
100000D04H,1,1,4,4
100000D03H,1,1,3,4
100000A26Q,1,1,3,3
100000T05F,1,1,3,4
100000S08A,1,1,3,4
200000N26A,1,1,2,2
100000D01H,1,1,3,3
100000D08H,1,1,4,4
100000D11H,1,1,3,4
100000D02H,1,1,3,4
100000D13H,1,1,4,4
100000D10H,1,1,4,4
100000D09H,1,1,4,4
100000N17A,1,1,2,3
100000N19A,1,1,2,3
100000N16A,1,1,2,3
100000N24A,1,1,2,2
100000D05H,1,1,4,4
100000N42A,1,1,2,2
100000PS62,1,1,13,25
100000D06H,1,1,3,4
100000A28Q,1,1,3,3
100000S17L,1,1,3,3
100000N10U,1,1,3,4
100000T06F,1,1,3,3
100000N67A,1,1,2,2
200000N35A,1,1,2,2
100000M30N,1,1,3,4
100000M32N,1,1,4,4
100000D27F,1,1,3,3
100000D12H,1,1,4,5
100000A27Q,1,1,3,3
100000N63A,1,1,2,2
100000N34A,1,1,2,2
100000C27V,1,1,2,2
100000C29V,1,1,3,3
100000N18A,1,1,2,2
100000M25N,1,1,3,4
100000N33A,1,1,2,2
100000N29A,1,1,2,3
100000N22A,1,1,2,2
100000U08F,1,1,4,8
100000S07A,1,1,7,10
100000D07H,1,1,3,4
100000N40A,1,1,2,2
100000D59F,1,1,4,4
100000S38M,1,1,3,3
100000Z262,1,1,4,4
100000C26V,1,1,3,3
100000N20A,1,1,1,2
100000A33Q,1,1,3,4
100000N54A,1,1,2,2
100000N53A,1,1,2,2
100000N37A,1,1,2,2
100000N38A,1,1,2,2
100000N52A,1,1,2,2
100000C24V,1,1,3,4
100000M23N,1,1,4,4
100000M27N,1,1,3,4
100000O03B,1,1,2,3
100000N32A,1,1,2,2
100000M29N,1,1,3,3
100000M31N,1,1,3,3
100000N50A,1,1,2,2
100000C28V,1,1,3,3
100000C21V,1,1,3,3
100000R10D,1,1,4,4
100000M26N,1,1,4,4
100000S18L,1,1,4,4
100000C66F,1,1,3,3
100000A107,1,1,3,3
100000M34N,1,1,3,3
100000M45N,1,1,3,3
100000N45A,1,1,2,2
100000N28A,1,1,2,2
100000PS63,1,1,2,3
100000N49A,1,1,2,2
100000A44F,1,1,3,3
100000M28N,1,1,3,3
100000N62A,1,1,2,2
100000M43N,1,1,3,3
100000M24N,1,1,3,4
100000N30A,1,1,2,2
100000C15M,1,1,3,3
100000S13L,1,1,3,3
100000C13M,1,1,3,3
100000N51A,1,1,2,2
100000CP96,1,1,3,3
100000CP98,1,1,3,3
100000O08B,1,1,3,3
100000S01I,1,1,3,4