id,catalog_code,name_course,email_supervisor,email_coordinator,type_program,cycle_id,new_update,
1,100000DH03,LIDERAZGO Y TOMA DE DECISIONES,dmalapi@utp.edu.pe,gespejo@utp.edu.pe,1,1,,
2,100000DH06,FILOSOFÍA DEL DERECHO,dmalapi@utp.edu.pe,gespejo@utp.edu.pe,1,1,,
3,100000DH10,DERECHOS HUMANOS,dmalapi@utp.edu.pe,pcalvay@utp.edu.pe,1,1,,
4,100000DH15,TEORÍA GENERAL DEL PROCESO,dmalapi@utp.edu.pe,pcalvay@utp.edu.pe,1,1,,
5,100000DH19,DERECHO PROCESAL CIVIL I,dmalapi@utp.edu.pe,pcalvay@utp.edu.pe,1,1,,
6,100000DH22,DERECHO PROCESAL ADMINISTRATIVO,dmalapi@utp.edu.pe,pcalvay@utp.edu.pe,1,1,,
7,100000DH23,DERECHO TRIBUTARIO GENERAL,dmalapi@utp.edu.pe,pcalvay@utp.edu.pe,1,1,,
8,100000DH25,DERECHO PENAL ECONÓMICO,dmalapi@utp.edu.pe,pcalvay@utp.edu.pe,1,1,,
9,100000DH27,DERECHO TRIBUTARIO ESPECIAL,dmalapi@utp.edu.pe,pcalvay@utp.edu.pe,1,1,,
10,100000DH29,DERECHO REGISTRAL Y NOTARIAL,dmalapi@utp.edu.pe,pcalvay@utp.edu.pe,1,1,,
11,100000DH31,DERECHO PROCESAL PENAL Y LITIGACIÓN ORAL,dmalapi@utp.edu.pe,gespejo@utp.edu.pe,1,1,,
12,100000DH33,TRIBUTACIÓN MUNICIPAL Y REGIONAL,dmalapi@utp.edu.pe,gespejo@utp.edu.pe,1,1,,
13,100000DH44,DERECHO ADUANERO,dmalapi@utp.edu.pe,pcalvay@utp.edu.pe,1,1,,
14,100000DH49,ÉTICA PROFESIONAL - DERECHO,dmalapi@utp.edu.pe,pcalvay@utp.edu.pe,1,1,,
15,100000DH59,DERECHO PROCESAL PENAL,dmalapi@utp.edu.pe,pcalvay@utp.edu.pe,1,1,,
16,100000DH60,POLÍTICA TRIBUTARIA,dmalapi@utp.edu.pe,pcalvay@utp.edu.pe,1,1,,
17,100000DH72,DERECHOS HUMANOS,dmalapi@utp.edu.pe,pcalvay@utp.edu.pe,1,1,,
18,100000PS27,PSICOLOGÍA DEL DESARROLLO I: APRENDIZAJE DE SERVICIO,ejefferson@utp.edu.pe,jastucuri@utp.edu.pe,1,1,,
19,100000PS28,OBSERVACIÓN Y ENTREVISTA,ejefferson@utp.edu.pe,jastucuri@utp.edu.pe,1,1,,
20,100000PS30,PERSONALIDAD,ejefferson@utp.edu.pe,jastucuri@utp.edu.pe,1,1,,
21,100000PS31,PSICOLOGÍA DEL DESARROLLO II: APRENDIZAJE DE SERVICIO,ejefferson@utp.edu.pe,jastucuri@utp.edu.pe,1,1,,
22,100000PS33,MOTIVACIÓN Y EMOCIÓN,ejefferson@utp.edu.pe,jastucuri@utp.edu.pe,1,1,,
23,100000PS34,PSICOPATOLOGÍA,ejefferson@utp.edu.pe,jastucuri@utp.edu.pe,1,1,,
24,100000PS36,PSICOLOGÍA SOCIAL - COMUNITARIA,ejefferson@utp.edu.pe,jastucuri@utp.edu.pe,1,1,,
25,100000PS37,PSICOLOGÍA DE LAS ORGANIZACIONES,ejefferson@utp.edu.pe,jastucuri@utp.edu.pe,1,1,,
26,100000PS40,PRUEBAS PSICOLÓGICAS I,ejefferson@utp.edu.pe,jastucuri@utp.edu.pe,1,1,,
27,100000PS41,GESTIÓN HUMANA EN LAS ORGANIZACIONES,ejefferson@utp.edu.pe,jastucuri@utp.edu.pe,1,1,,
28,100000PS43,DIAGNÓSTICO DIFERENCIAL,ejefferson@utp.edu.pe,jastucuri@utp.edu.pe,1,1,,
29,100000PS46,PRUEBAS PSICOLÓGICAS II,ejefferson@utp.edu.pe,jastucuri@utp.edu.pe,1,1,,
30,100000PS47,CAMBIO Y TRANSFORMACIÓN ORGANIZACIONAL,ejefferson@utp.edu.pe,jastucuri@utp.edu.pe,1,1,,
31,100000PS50,DIAGNÓSTICO ORGANIZACIONAL,ejefferson@utp.edu.pe,jastucuri@utp.edu.pe,1,1,,
32,100000PS51,PSICOLOGÍA CULTURAL,ejefferson@utp.edu.pe,jastucuri@utp.edu.pe,1,1,,
33,100000PS53,DINÁMICA DE GRUPOS,ejefferson@utp.edu.pe,jastucuri@utp.edu.pe,1,1,,
34,100000PS54,CONSULTORÍA EN ORGANIZACIONES,ejefferson@utp.edu.pe,jastucuri@utp.edu.pe,1,1,,
35,100000PS58,TÉCNICAS PSICOTERAPÉUTICAS,ejefferson@utp.edu.pe,jastucuri@utp.edu.pe,1,1,,
36,100000PS64,TALLER DE REHABILITACIÓN SOCIAL,ejefferson@utp.edu.pe,jastucuri@utp.edu.pe,1,1,,
37,100000PS65,PSICOLOGÍA DE LA SEXUALIDAD,ejefferson@utp.edu.pe,jastucuri@utp.edu.pe,1,1,,
38,100000PS66,TERAPIA BASADA EN EVIDENCIA,ejefferson@utp.edu.pe,jastucuri@utp.edu.pe,1,1,,
39,100000AP84,SEMINARIO DE CASOS,ejefferson@utp.edu.pe,jastucuri@utp.edu.pe,1,1,,
40,100000AP88,PSICOLOGÍA FORENSE,ejefferson@utp.edu.pe,jastucuri@utp.edu.pe,1,1,,
41,100000AN57,DERECHO TRIBUTARIO Y FINANCIERO,aurquizo@utp.edu.pe,hzavalach@utp.edu.pe,1,1,,
42,100000CF16,INFORMÁTICA APLICADA,aurquizo@utp.edu.pe,fsanchezt@utp.edu.pe,1,1,,
43,100000CF20,DESARROLLO DE HABILIDADES PERSONALES,aurquizo@utp.edu.pe,fsanchezt@utp.edu.pe,1,1,,
44,100000CF21,ESTADOS FINANCIEROS,aurquizo@utp.edu.pe,aurquizo@utp.edu.pe,1,1,,
45,100000CF23,LEGISLACIÓN COMERCIAL Y LABORAL,aurquizo@utp.edu.pe,fsanchezt@utp.edu.pe,1,1,,
46,100000CF30,COSTOS INDUSTRIALES,aurquizo@utp.edu.pe,ichambergc@utp.edu.pe,1,1,,
47,100000CF38,CONTABILIDAD INFORMÁTICA,aurquizo@utp.edu.pe,fsanchezt@utp.edu.pe,1,1,,
48,100000CF40,GESTIÓN DE PROCESOS Y BASE DE DATOS,aurquizo@utp.edu.pe,fsanchezt@utp.edu.pe,1,1,,
49,100000CF46,ERP - PLANIFICACIÓN RECURSOS EMPRESARIALES,aurquizo@utp.edu.pe,fsanchezt@utp.edu.pe,1,1,,
50,100000CF52,FORMULACIÓN Y EVALUACIÓN DE PROYECTOS -CC,aurquizo@utp.edu.pe,fsanchezt@utp.edu.pe,1,1,,
51,100000A208,PLATAFORMA EIKON II,aurquizo@utp.edu.pe,hzavalach@utp.edu.pe,1,1,,
52,100000AN99,CURSO INTEGRADOR EN GESTIÓN BANCARIA Y FINANCIERA,aurquizo@utp.edu.pe,hzavalach@utp.edu.pe,1,1,,
53,100000Z970,EVALUACIÓN CREDITICIA - PERSONAS NATURALES,aurquizo@utp.edu.pe,hzavalach@utp.edu.pe,1,1,,
54,100000A20N,"TALLER DE INVESTIGACIÓN – ADMINISTRACIÓN, BANCA Y FINANZAS",aurquizo@utp.edu.pe,hzavalach@utp.edu.pe,1,1,,
55,100000RI05,RELACIONES INTERNACIONALES NO ESTATALES,dmalapi@utp.edu.pe,gespejo@utp.edu.pe,1,1,,
56,100000RI32,INGLÉS VI,dmalapi@utp.edu.pe,gespejo@utp.edu.pe,1,1,,
57,100000RI33,INGLÉS VII,dmalapi@utp.edu.pe,gespejo@utp.edu.pe,1,1,,
58,100000C02V,GEOLOGÍA,jorccosupa@utp.edu.pe,bvilavila@utp.edu.pe,1,1,,
59,100000C05V,ANÁLISIS ESTRUCTURAL I,jorccosupa@utp.edu.pe,bvilavila@utp.edu.pe,1,1,,
60,100000C07V,INGENIERÍA DE CARRETERAS,jorccosupa@utp.edu.pe,bvilavila@utp.edu.pe,1,1,,
61,100000C08V,ANÁLISIS ESTRUCTURAL II,jorccosupa@utp.edu.pe,bvilavila@utp.edu.pe,1,1,,
62,100000C10V,CONSTRUCCIÓN DE CARRETERAS,jorccosupa@utp.edu.pe,bvilavila@utp.edu.pe,1,1,,
63,100000C13V,MECÁNICA DE SUELOS,jorccosupa@utp.edu.pe,bvilavila@utp.edu.pe,1,1,,
64,100000C17V,INGENIERÍA GEOTÉCNICA,jorccosupa@utp.edu.pe,bvilavila@utp.edu.pe,1,1,,
65,100000C18V,MODELADO DE INFORMACIÓN DE EDIFICACIONES - BIM,jorccosupa@utp.edu.pe,jbejaranob@utp.edu.pe,1,1,,
66,100000N44F,SISTEMAS INTEGRADOS DE GESTIÓN MINERA,jorccosupa@utp.edu.pe,jbejaranob@utp.edu.pe,1,1,,
67,100000I88N,GERENCIA DE PROYECTOS DE CONSTRUCCIÓN,jorccosupa@utp.edu.pe,jbejaranob@utp.edu.pe,1,1,,
68,100000AN14,FUNDAMENTOS DE CONTABILIDAD Y FINANZAS,aurquizo@utp.edu.pe,ichambergc@utp.edu.pe,1,1,,
69,100000CF55,GESTIÓN EMPRESARIAL,aurquizo@utp.edu.pe,fsanchezt@utp.edu.pe,1,1,,
70,100000C53F,AUDITORÍA DE GESTIÓN EMPRESARIAL,aurquizo@utp.edu.pe,wchavez@utp.edu.pe,1,1,,
71,100000C56F,AUDITORÍA GUBERNAMENTAL,aurquizo@utp.edu.pe,wchavez@utp.edu.pe,1,1,,
72,200000AN20,CONTABILIDAD GERENCIAL Y DE COSTOS,aurquizo@utp.edu.pe,hzavalach@utp.edu.pe,1,1,,
73,100000C49F,FINANZAS CORPORATIVAS E INTERNACIONALES,aurquizo@utp.edu.pe,wchavez@utp.edu.pe,1,1,,
74,100000C51F,TRIBUTACIÓN ADUANERA E INTERNACIONAL,aurquizo@utp.edu.pe,wchavez@utp.edu.pe,1,1,,
75,100000C47F,CONTABILIDAD TRIBUTARIA,aurquizo@utp.edu.pe,wchavez@utp.edu.pe,1,1,,
76,100000C50F,GABINETE CONTABLE,aurquizo@utp.edu.pe,wchavez@utp.edu.pe,1,1,,
77,100000C54F,AUDITORÍA TRIBUTARIA,aurquizo@utp.edu.pe,wchavez@utp.edu.pe,1,1,,
78,100000C64F,CONTABILIDAD MINERA,aurquizo@utp.edu.pe,aurquizo@utp.edu.pe,1,1,,
79,100000AN49,FORMULACIÓN Y EVALUACIÓN FINANCIERA,jrivadeney@utp.edu.pe,fcurasi@utp.edu.pe,1,1,,
80,200000AN20,CONTABILIDAD GERENCIAL Y DE COSTOS,jrivadeney@utp.edu.pe,lperaltal@utp.edu.pe,1,1,,
81,100000AN57,DERECHO TRIBUTARIO Y FINANCIERO,jrivadeney@utp.edu.pe,hzavalach@utp.edu.pe,1,1,,
82,100000A208,PLATAFORMA EIKON II,jrivadeney@utp.edu.pe,hzavalach@utp.edu.pe,1,1,,
83,100000AN99,CURSO INTEGRADOR EN GESTIÓN BANCARIA Y FINANCIERA,jrivadeney@utp.edu.pe,hzavalach@utp.edu.pe,1,1,,
84,100000Z970,EVALUACIÓN CREDITICIA - PERSONAS NATURALES,jrivadeney@utp.edu.pe,hzavalach@utp.edu.pe,1,1,,
85,100000A20N,"TALLER DE INVESTIGACIÓN – ADMINISTRACIÓN, BANCA Y FINANZAS",jrivadeney@utp.edu.pe,hzavalach@utp.edu.pe,1,1,,
86,100000AN09,INTRODUCCIÓN A LA BANCA Y FINANZAS,jrivadeney@utp.edu.pe,hzavalach@utp.edu.pe,1,1,,
87,100000AN26,ORGANISMO Y LEGISLACIÓN FINANCIERA,jrivadeney@utp.edu.pe,hzavalach@utp.edu.pe,1,1,,
88,100000AN42,CAPITAL MARKETS,jrivadeney@utp.edu.pe,hzavalach@utp.edu.pe,1,1,,
89,100000AN56,"COMMODITIES, FUTUROS Y DERIVADOS",jrivadeney@utp.edu.pe,hzavalach@utp.edu.pe,1,1,,
90,100000AN58,RIESGOS E INSTRUMENTOS DE AHORRO E INVERSIÓN FINANCIERA,jrivadeney@utp.edu.pe,hzavalach@utp.edu.pe,1,1,,
91,100000AN24,FINANZAS APLICADAS,jrivadeney@utp.edu.pe,hzavalach@utp.edu.pe,1,1,,
92,100000AN59,INSTRUMENTOS DE RENTA E INTERMEDIACIÓN,jrivadeney@utp.edu.pe,hzavalach@utp.edu.pe,1,1,,
93,100000AN60,INSTRUMENTOS FINANCIEROS II,jrivadeney@utp.edu.pe,hzavalach@utp.edu.pe,1,1,,
94,100000AN61,OPERACIONES BANCARIAS,jrivadeney@utp.edu.pe,hzavalach@utp.edu.pe,1,1,,
95,100000AN62,ECONOMETRÍA FINANCIERA,jrivadeney@utp.edu.pe,hzavalach@utp.edu.pe,1,1,,
96,100000AN63,ANÁLISIS ECONÓMICO FINANCIERO DE LOS MERCADOS GLOBALES,jrivadeney@utp.edu.pe,hzavalach@utp.edu.pe,1,1,,
97,100000AN64,FINANZAS CORPORATIVAS II,jrivadeney@utp.edu.pe,hzavalach@utp.edu.pe,1,1,,
98,100000AN38,INSTRUMENTOS FINANCIEROS I,jrivadeney@utp.edu.pe,hzavalach@utp.edu.pe,1,1,,
99,100000AN65,DISEÑO DE PORTAFOLIO DE INVERSIÓN,jrivadeney@utp.edu.pe,hzavalach@utp.edu.pe,1,1,,
100,100000AN97,VALORACIÓN EMPRESARIAL Y DE INVERSIONES,jrivadeney@utp.edu.pe,hzavalach@utp.edu.pe,1,1,,
101,100000AN98,GERENCIA FINANCIERA,jrivadeney@utp.edu.pe,hzavalach@utp.edu.pe,1,1,,
102,100000A18N,INGENIERÍA FINANCIERA,jrivadeney@utp.edu.pe,hzavalach@utp.edu.pe,1,1,,
103,100000A19N,BANCA DE INVERSIÓN,jrivadeney@utp.edu.pe,hzavalach@utp.edu.pe,1,1,,
104,100000A16N,DIRECCIÓN FINANCIERA,jrivadeney@utp.edu.pe,hzavalach@utp.edu.pe,1,1,,
105,100000A37N,FINANZAS CORPORATIVAS I,jrivadeney@utp.edu.pe,hzavalach@utp.edu.pe,1,1,,
106,100000A38N,GESTIÓN DE COSTOS Y PRESUPUESTOS,jrivadeney@utp.edu.pe,hzavalach@utp.edu.pe,1,1,,
107,100000A39N,ESTRATEGIAS DE PRODUCTOS DERIVADOS,jrivadeney@utp.edu.pe,hzavalach@utp.edu.pe,1,1,,
108,100000N88A,SABRE TRAVEL NETWORK II,jrivadeney@utp.edu.pe,cwarthon@utp.edu.pe,1,1,,
109,100000AN15,FUNDAMENTOS DE INFORMÁTICA,jrivadeney@utp.edu.pe,cwarthon@utp.edu.pe,1,1,,
110,100000AN21,INFORMÁTICA PARA LOS NEGOCIOS,jrivadeney@utp.edu.pe,cwarthon@utp.edu.pe,1,1,,
111,100000AN25,COMPORTAMIENTO Y CULTURA EN LAS ORGANIZACIONES,jrivadeney@utp.edu.pe,fcurasi@utp.edu.pe,1,1,,
112,100000AN37,NEGOCIOS DIGITALES,jrivadeney@utp.edu.pe,ipachecom@utp.edu.pe,1,1,,
113,100000AN41,GESTIÓN DEL TALENTO HUMANO,jrivadeney@utp.edu.pe,fcurasi@utp.edu.pe,1,1,,
114,100000AN91,CUSTOMER RELATIONSHIP MANAGEMENT (CRM),jrivadeney@utp.edu.pe,ipachecom@utp.edu.pe,1,1,,
115,100000I27N,ADMINISTRACIÓN Y ORGANIZACIÓN DE EMPRESAS,jrivadeney@utp.edu.pe,fcurasi@utp.edu.pe,1,1,,
116,100000NI08,GESTIÓN DE RECURSOS HUMANOS,jrivadeney@utp.edu.pe,fcurasi@utp.edu.pe,1,1,,
117,100000A196,DIAGNÓSTICO SITUACIONAL Y DESARROLLO HUMANO,jrivadeney@utp.edu.pe,fcurasi@utp.edu.pe,1,1,,
118,100000A676,COMMUNITY MANAGER,jrivadeney@utp.edu.pe,ipachecom@utp.edu.pe,1,1,,
119,100000A212,EXCEL AVANZADO EMPRESARIAL,jrivadeney@utp.edu.pe,ipachecom@utp.edu.pe,1,1,,
120,100000A215,ESTADÍSTICA PARA NEGOCIOS CON SPSS,jrivadeney@utp.edu.pe,fcurasi@utp.edu.pe,1,1,,
121,100000A674,EXCEL FINANCIERO EMPRESARIAL,jrivadeney@utp.edu.pe,hzavalach@utp.edu.pe,1,1,,
122,100000AE13,DISEÑO GRÁFICO EMPRESARIAL,jrivadeney@utp.edu.pe,ipachecom@utp.edu.pe,1,1,,
123,100000N87A,SABRE TRAVEL NETWORK I,jrivadeney@utp.edu.pe,cwarthon@utp.edu.pe,1,1,,
124,100000AN16,DERECHO EMPRESARIAL,jrivadeney@utp.edu.pe,ipachecom@utp.edu.pe,1,1,,
125,100000AN53,GESTIÓN Y SUMINISTROS DE BIENES Y SERVICIOS,jrivadeney@utp.edu.pe,fcurasi@utp.edu.pe,1,1,,
126,100000AN36,INVESTIGACIÓN OPERATIVA,jrivadeney@utp.edu.pe,fcurasi@utp.edu.pe,1,1,,
127,100000AN45,GESTIÓN Y SISTEMAS DE LA CALIDAD TOTAL,jrivadeney@utp.edu.pe,cwarthon@utp.edu.pe,1,1,,
128,100000AN47,GESTIÓN ESTRATEGICA DE VENTAS,jrivadeney@utp.edu.pe,fcurasi@utp.edu.pe,1,1,,
129,100000AN54,LEGISLACIÓN COMERCIAL Y TRIBUTARIA,jrivadeney@utp.edu.pe,fcurasi@utp.edu.pe,1,1,,
130,100000A14N,LEGISLACIÓN LABORAL,jrivadeney@utp.edu.pe,fcurasi@utp.edu.pe,1,1,,
131,100000A198,PSICOLOGÍA APLICADA EN LA GESTIÓN TURÍSTICA,jrivadeney@utp.edu.pe,cwarthon@utp.edu.pe,1,1,,
132,100000Z980,POLÍTICAS Y ESTRATEGIAS DE PRECIOS,jrivadeney@utp.edu.pe,ipachecom@utp.edu.pe,1,1,,
133,100000Z981,PROTOCOLO SOCIAL,jrivadeney@utp.edu.pe,cwarthon@utp.edu.pe,1,1,,
134,100000DH31,DERECHO PROCESAL PENAL Y LITIGACIÓN ORAL,dmalapi@utp.edu.pe,gespejo@utp.edu.pe,1,1,,
135,100000DH61,PLANIFICACIÓN FISCAL,dmalapi@utp.edu.pe,gespejo@utp.edu.pe,1,1,,
136,100000DH56,TEORÍA Y TÉCNICAS DE LA NEGOCIACIÓN,dmalapi@utp.edu.pe,gespejo@utp.edu.pe,1,1,,
137,100000CP36,EDICION DE VIDEO DIGITAL,lcardenas@utp.edu.pe,evasquezy@utp.edu.pe,1,1,,
138,100000CP55,EDICION AVANZADA,lcardenas@utp.edu.pe,evasquezy@utp.edu.pe,1,1,,
139,100000CP87,DISEÑO Y ANIMACION MULTIMEDIA,lcardenas@utp.edu.pe,evasquezy@utp.edu.pe,1,1,,
140,100000C08P,DISEÑO MULTIMEDIA Y ANIMACION,lcardenas@utp.edu.pe,evasquezy@utp.edu.pe,1,1,,
141,100000C11P,DISEÑO MULTIMEDIA INTERACTIVO,lcardenas@utp.edu.pe,evasquezy@utp.edu.pe,1,1,,
142,100000C14P,DISEÑO WEB,lcardenas@utp.edu.pe,evasquezy@utp.edu.pe,1,1,,
143,100000C15P,MODELADO 3D,lcardenas@utp.edu.pe,evasquezy@utp.edu.pe,1,1,,
144,100000C16P,INTEGRACION EN POST PRODUCCION,lcardenas@utp.edu.pe,evasquezy@utp.edu.pe,1,1,,
145,100000C17P,BUSQUEDA Y METRICAS ON LINE,lcardenas@utp.edu.pe,evasquezy@utp.edu.pe,1,1,,
146,100000C19P,TALLER DE MULTIMEDIA WEB,lcardenas@utp.edu.pe,evasquezy@utp.edu.pe,1,1,,
147,100000C20P,ANIMACION 3D,lcardenas@utp.edu.pe,evasquezy@utp.edu.pe,1,1,,
148,100000C21P,TALLER DE POST PRODUCCION DE V,lcardenas@utp.edu.pe,evasquezy@utp.edu.pe,1,1,,
149,100000C25P,CORRECCION DE COLOR,lcardenas@utp.edu.pe,evasquezy@utp.edu.pe,1,1,,
150,100000C28P,TALLER DE INTEGRACION MULTIMEDIA,lcardenas@utp.edu.pe,evasquezy@utp.edu.pe,1,1,,
151,100000C29P,VISUALIZACIÓN E INTEGRACIÓN EN 3D,lcardenas@utp.edu.pe,evasquezy@utp.edu.pe,1,1,,
152,100000C30P,AUTORIA E INTERACTIVIDAD DIGITAL,lcardenas@utp.edu.pe,evasquezy@utp.edu.pe,1,1,,
153,100000CP48,DISEÑO MULTIMEDIA Y WEB,lcardenas@utp.edu.pe,evasquezy@utp.edu.pe,1,1,,
154,100000CP35,DISEÑO VECTORIAL,lcardenas@utp.edu.pe,evasquezy@utp.edu.pe,1,1,,
155,100000CP40,DISEÑO GRAFICO DIGITAL,lcardenas@utp.edu.pe,evasquezy@utp.edu.pe,1,1,,
156,100000CP43,DISEÑO Y DIAGRAMACION DIGITAL I,lcardenas@utp.edu.pe,evasquezy@utp.edu.pe,1,1,,
157,100000CP44,PRE PRENSA DIGITAL,lcardenas@utp.edu.pe,evasquezy@utp.edu.pe,1,1,,
158,100000CP60,TALLER DE DISEÑO DIGITAL,lcardenas@utp.edu.pe,evasquezy@utp.edu.pe,1,1,,
159,100000C09P,DISEÑO Y DIAGRAMACION DIGITAL II,lcardenas@utp.edu.pe,evasquezy@utp.edu.pe,1,1,,
160,100000C13P,TALLER DE ETIQUETAS Y EMPAQUES,lcardenas@utp.edu.pe,evasquezy@utp.edu.pe,1,1,,
161,100000C18P,DIBUJO ARTISTICO,lcardenas@utp.edu.pe,evasquezy@utp.edu.pe,1,1,,
162,100000C22P,DIBUJO PUBLICITARIO,lcardenas@utp.edu.pe,evasquezy@utp.edu.pe,1,1,,
163,100000C24P,TALLER DE NUEVAS TECNOLOGIAS DIGITALES Y GRAFICAS,lcardenas@utp.edu.pe,evasquezy@utp.edu.pe,1,1,,
164,100000C27P,TALLER DE ILUSTRACION,lcardenas@utp.edu.pe,evasquezy@utp.edu.pe,1,1,,
165,100000C12P,TALLER DE INTEGRACION CROSSMEDIA I,lcardenas@utp.edu.pe,evasquezy@utp.edu.pe,1,1,,
166,100000C26P,TALLER DE INTEGRACIÓN CROSSMEDIA II,lcardenas@utp.edu.pe,evasquezy@utp.edu.pe,1,1,,
167,100000N08A,COMPLEMENTO: DISEÑO WEB ,lcardenas@utp.edu.pe,evasquezy@utp.edu.pe,1,1,,
168,100000N07A,COMPLEMENTO: DISEÑO MULTIMEDIA INTERACTIVO,lcardenas@utp.edu.pe,evasquezy@utp.edu.pe,1,1,,
169,100000CP72,TALLER DE MARKETING POLÍTICO,lcardenas@utp.edu.pe,rdiaz@utp.edu.pe,1,1,,
170,100000CP74,TALLER DE RELACIONES PÚBLICAS E IMAGEN CORPORATIVA,lcardenas@utp.edu.pe,rdiaz@utp.edu.pe,1,1,,
171,100000N01I,COMPRENSIÓN Y REDACCIÓN DE TEXTOS I,maguirre@utp.edu.pe,rmoreano@utp.edu.pe,1,1,,
172,100000N04I,COMPRENSIÓN Y REDACCIÓN DE TEXTOS 2,maguirre@utp.edu.pe,rmoreano@utp.edu.pe,1,1,,
173,100000X101,NIVELACIÓN DE REDACCIÓN,maguirre@utp.edu.pe,rmoreano@utp.edu.pe,1,1,,
174,100000N11I,FORMACION PARA LA EMPLEABILIDAD,maguirre@utp.edu.pe,sramirezs@utp.edu.pe,1,1,,
175,100000H01C,HERRAMIENTAS PARA LA COMUNICACION EFECTIVA,maguirre@utp.edu.pe,sramirezs@utp.edu.pe,1,1,,
176,100000H03F,GEOGRAFÍA TURÍSTICA,aportocarr@utp.edu.pe,vescobedo@utp.edu.pe,1,1,,
177,100000H05F,HISTORIA CULTURAL DEL PERÚ,aportocarr@utp.edu.pe,vescobedo@utp.edu.pe,1,1,,
178,100000H08F,GESTIÓN HOTELERA,aportocarr@utp.edu.pe,vescobedo@utp.edu.pe,1,1,,
179,100000H09F,OPERACIÓN TURÍSTICA NACIONAL,aportocarr@utp.edu.pe,vescobedo@utp.edu.pe,1,1,,
180,100000H14F,GESTIÓN DE RESTAURANTES,aportocarr@utp.edu.pe,vescobedo@utp.edu.pe,1,1,,
181,100000H18F,ECOEFICIENCIA EN OPERACIONES HOTELERAS,aportocarr@utp.edu.pe,vescobedo@utp.edu.pe,1,1,,
182,100000K12F,COMPORTAMIENTO ORGANIZACIONAL EN MARKETING,aportocarr@utp.edu.pe,vescobedo@utp.edu.pe,1,1,,
183,100000K13F,INVESTIGACIÓN DE MERCADOS INTERNACIONALES,aportocarr@utp.edu.pe,vescobedo@utp.edu.pe,1,1,,
184,100000K14F,ESTRATEGIAS Y POLÍTICAS DE PRECIO,aportocarr@utp.edu.pe,vescobedo@utp.edu.pe,1,1,,
185,100000K16F,E-MARKETING,aportocarr@utp.edu.pe,vescobedo@utp.edu.pe,1,1,,
186,100000K17F,GERENCIA DE MARCA,aportocarr@utp.edu.pe,vescobedo@utp.edu.pe,1,1,,
187,100000K18F,RETAILING,aportocarr@utp.edu.pe,vescobedo@utp.edu.pe,1,1,,
188,100000K20F,DIRECCIÓN DE MARKETING,aportocarr@utp.edu.pe,vescobedo@utp.edu.pe,1,1,,
189,100000M01N,INTRODUCCIÓN A LA INGENIERÍA DE MINAS,aportocarr@utp.edu.pe,c16249@utp.edu.pe,1,1,,1ª update
190,100000M05N,MECÁNICA DE ROCAS I,aportocarr@utp.edu.pe,c16249@utp.edu.pe,1,1,,
191,100000M06N,TOPOGRAFÍA MINERA,aportocarr@utp.edu.pe,c16249@utp.edu.pe,1,1,,
192,100000M07N,CURSO INTEGRADOR I - MINAS,aportocarr@utp.edu.pe,c16249@utp.edu.pe,1,1,,
193,100000M09N,LEGISLACIÓN MINERA,aportocarr@utp.edu.pe,c16249@utp.edu.pe,1,1,,
194,100000M10N,MECÁNICA DE ROCAS 2,aportocarr@utp.edu.pe,c16249@utp.edu.pe,1,1,,
195,100000M13N,EQUIPOS DE MAQUINARIA Y TRANSPORTE,aportocarr@utp.edu.pe,c16249@utp.edu.pe,1,1,,
196,100000M14N,GEOLOGÍA APLICADA A LA MINERÍA,aportocarr@utp.edu.pe,c16249@utp.edu.pe,1,1,,
197,100000M15N,GESTIÓN DE LA SEGURIDAD MINERA,aportocarr@utp.edu.pe,c16249@utp.edu.pe,1,1,,
198,100000M18N,GESTIÓN AMBIENTAL MINERA,aportocarr@utp.edu.pe,c16249@utp.edu.pe,1,1,,
199,100000M19N,MINADO SUPERFICIAL,aportocarr@utp.edu.pe,c16249@utp.edu.pe,1,1,,
200,100000M21N,SOFTWARE APLICADO A LA MINERÍA,aportocarr@utp.edu.pe,c16249@utp.edu.pe,1,1,,
201,100000M22N,VENTILACIÓN DE MINAS,aportocarr@utp.edu.pe,c16249@utp.edu.pe,1,1,,
202,100000M02N,GEOLOGÍA GENERAL MINERA,aportocarr@utp.edu.pe,c16249@utp.edu.pe,1,1,,
203,100000M03N,PETROLOGÍA Y MINERALOGÍA,aportocarr@utp.edu.pe,c16249@utp.edu.pe,1,1,,
204,100000M04N,GEOLOGÍA ESTRUCTURAL,aportocarr@utp.edu.pe,c16249@utp.edu.pe,1,1,,
205,100000M08N,HIDRÁULICA,aportocarr@utp.edu.pe,c16249@utp.edu.pe,1,1,,
206,100000M11N,PERFORACIÓN Y VOLADURA I,aportocarr@utp.edu.pe,c16249@utp.edu.pe,1,1,,
207,100000M16N,MINADO SUBTERRÁNEO,aportocarr@utp.edu.pe,c16249@utp.edu.pe,1,1,,
208,100000M17N,PERFORACIÓN Y VOLADURA II,aportocarr@utp.edu.pe,c16249@utp.edu.pe,1,1,,
209,100000M20N,SERVICIOS AUXILIARES,aportocarr@utp.edu.pe,c16249@utp.edu.pe,1,1,,
210,100000N05A,CURSO INTEGRADOR II - CIENCIAS DE LA COMUNICACIÓN,lcardenas@utp.edu.pe,omonzon@utp.edu.pe,1,1,,
211,100000I73N,ANÁLISIS DE CIRCUITOS ELÉCTRICOS,gromero@utp.edu.pe,aalvarado@utp.edu.pe,1,1,,
212,100000M33N,RESISTENCIA DE MATERIALES,aportocarr@utp.edu.pe,c16249@utp.edu.pe,1,1,,
213,100000S01I,INVESTIGACION OPERATIVA,aportocarr@utp.edu.pe,c16249@utp.edu.pe,1,1,,
214,100000M12N,COSTOS Y PRESPUESTOS EN MINERÍA,aportocarr@utp.edu.pe,c16249@utp.edu.pe,1,1,,
215,100000N33F,PROYECTO DE INGENIERÍA DE MINAS,aportocarr@utp.edu.pe,c16249@utp.edu.pe,1,1,,
216,100000A01T,MECANISMOS DEL AUTOMÓVIL,jpierola@utp.edu.pe,vguillen@grupoutp.edu.pe,1,1,,
217,100000A02T,DISEÑO Y CONSTRUCCIÓN DEL AUTOMÓVIL,jpierola@utp.edu.pe,vguillen@grupoutp.edu.pe,1,1,,
218,100000A03T,AUTOTRÓNICA II,jpierola@utp.edu.pe,vguillen@grupoutp.edu.pe,1,1,,
219,100000A04T,CURSO INTEGRADOR II - AUTOMOTRIZ,jpierola@utp.edu.pe,vguillen@grupoutp.edu.pe,1,1,,
220,100000A05T,GESTIÓN DE FLOTA VEHICULAR,jpierola@utp.edu.pe,vguillen@grupoutp.edu.pe,1,1,,
221,100000A06T,MANTENIMIENTO DE VEHÍCULOS,jpierola@utp.edu.pe,vguillen@grupoutp.edu.pe,1,1,,
222,100000A07T,TEORÍA DEL AUTOMÓVIL,jpierola@utp.edu.pe,vguillen@grupoutp.edu.pe,1,1,,
223,100000A08T,DISEÑO DE TALLERES DE MANTENIMIENTO,jpierola@utp.edu.pe,vguillen@grupoutp.edu.pe,1,1,,
224,100000A09T,GESTIÓN DE MAQUINARIA PESADA,jpierola@utp.edu.pe,vguillen@grupoutp.edu.pe,1,1,,
225,100000A10T,PERITAJE TÉCNICO DE VEHÍCULOS,jpierola@utp.edu.pe,vguillen@grupoutp.edu.pe,1,1,,
226,100000A11T,REPARACIÓN DE VEHÍCULOS,jpierola@utp.edu.pe,vguillen@grupoutp.edu.pe,1,1,,
227,100000A12T,AUTOTRÓNICA I,jpierola@utp.edu.pe,vguillen@grupoutp.edu.pe,1,1,,
228,100000A13T,CHASIS Y CARROCERÍAS DE VEHÍCULOS,jpierola@utp.edu.pe,vguillen@grupoutp.edu.pe,1,1,,
229,100000I72N,ESTÁTICA,jpierola@utp.edu.pe,vguillen@grupoutp.edu.pe,1,1,,
230,100000I76N,DINÁMICA,jpierola@utp.edu.pe,vguillen@grupoutp.edu.pe,1,1,,
231,100000I78N,MECÁNICA DE FLUIDOS,jpierola@utp.edu.pe,vguillen@grupoutp.edu.pe,1,1,,
232,100000I81N,MÉTODOS NUMÉRICOS,jpierola@utp.edu.pe,vguillen@grupoutp.edu.pe,1,1,,
233,100000M03T,ELASTICIDAD Y RESISTENCIA,jpierola@utp.edu.pe,vguillen@grupoutp.edu.pe,1,1,,
234,100000I98N,RESISTENCIA DE MATERIALES,jpierola@utp.edu.pe,vguillen@grupoutp.edu.pe,1,1,,
235,100000CP57,LEGISLACIÓN DE LA COMUNICACIÓN,lcardenas@utp.edu.pe,zmanzaneda@utp.edu.pe,1,1,,
236,100000CP66,GESTIÓN DE REDES SOCIALES (COMMUNITY MANAGER),lcardenas@utp.edu.pe,zmanzaneda@utp.edu.pe,1,1,,1ª update
237,100000I73N,ANÁLISIS DE CIRCUITOS ELÉCTRICOS,gromero@utp.edu.pe,gmichhue@utp.edu.pe,1,1,,2ª update
238,100000C22V,PAVIMENTOS,jorccosupa@utp.edu.pe,bvilavila@utp.edu.pe,1,1,,
239,100000DH05,CIENCIA POLITICA,dmalapi@utp.edu.pe,gespejo@utp.edu.pe,1,1,,
240,100000DH11,DERECHO DE FAMILIA Y SUCESIONES,dmalapi@utp.edu.pe,pcalvay@utp.edu.pe,1,1,,
241,100000DH02,HISTORIA DEL DERECHO,dmalapi@utp.edu.pe,barias@utp.edu.pe,1,1,,
242,100000Z479,FORMULACIÓN Y EVALUACIÓN FINANCIERA,jrivadeney@utp.edu.pe,fcurasi@utp.edu.pe,1,1,,
243,100000AN22,FUNDAMENTOS DE MARKETING,jrivadeney@utp.edu.pe,ipachecom@utp.edu.pe,1,1,,
244,100000AN31,INVESTIGACION DE MERCADOS,jrivadeney@utp.edu.pe,ipachecom@utp.edu.pe,1,1,,
245,100000AN12,INTRODUCCION AL MARKETING,jrivadeney@utp.edu.pe,ipachecom@utp.edu.pe,1,1,,
246,100000AN29,COMPORTAMIENTO DEL CONSUMIDOR,jrivadeney@utp.edu.pe,ipachecom@utp.edu.pe,1,1,,
247,100000AN40,PLAN DE MERCADO,jrivadeney@utp.edu.pe,ipachecom@utp.edu.pe,1,1,,
248,100000AN44,MARKETING APLICADO Y RETAIL,jrivadeney@utp.edu.pe,ipachecom@utp.edu.pe,1,1,,
249,100000AN83,MARKETING DIGITAL,jrivadeney@utp.edu.pe,ipachecom@utp.edu.pe,1,1,,
250,100000AN84,FUNDAMENTOS DE GESTION RETAIL,jrivadeney@utp.edu.pe,ipachecom@utp.edu.pe,1,1,,
251,100000AN86,MARKETING ESTRATEGICO,jrivadeney@utp.edu.pe,ipachecom@utp.edu.pe,1,1,,
252,100000AN87,LEGISLACION DE MEDIOS DIGITALES,jrivadeney@utp.edu.pe,ipachecom@utp.edu.pe,1,1,,
253,100000AN88,ESTRATEGIAS EN PROMOCION Y VENTAS,jrivadeney@utp.edu.pe,ipachecom@utp.edu.pe,1,1,,
254,100000AN89,NORMATIVIDAD LEGAL DEL MARKETING,jrivadeney@utp.edu.pe,ipachecom@utp.edu.pe,1,1,,
255,100000AN90,ANALISIS Y ESTRATEGIAS DEL MARKETING,jrivadeney@utp.edu.pe,ipachecom@utp.edu.pe,1,1,,
256,100000A06N,ESTRATEGIAS EN LOS MERCADOS DE SERVICIOS,jrivadeney@utp.edu.pe,cwarthon@utp.edu.pe,1,1,,
257,100000AN92,CATEGORY MANAGEMENT,jrivadeney@utp.edu.pe,ipachecom@utp.edu.pe,1,1,,
258,100000A10N,RETAIL MANAGEMENT,jrivadeney@utp.edu.pe,ipachecom@utp.edu.pe,1,1,,
259,100000A29N,GESTION DE FERIAS Y PROMOCIONES,jrivadeney@utp.edu.pe,ipachecom@utp.edu.pe,1,1,,
260,100000A30N,ESTRATEGIAS DE MARKETING PARA MERCADOS INTERNACIONALES,jrivadeney@utp.edu.pe,ipachecom@utp.edu.pe,1,1,,
261,100000A36N,DESARROLLO ESTRATEGICO,jrivadeney@utp.edu.pe,ipachecom@utp.edu.pe,1,1,,
262,100000A200,BRANDING,jrivadeney@utp.edu.pe,ipachecom@utp.edu.pe,1,1,,
263,100000A205,NEUROMARKETING,jrivadeney@utp.edu.pe,ipachecom@utp.edu.pe,1,1,,
264,100000Z979,GESTION DE MEDIOS Y LA PUBLICIDAD,jrivadeney@utp.edu.pe,ipachecom@utp.edu.pe,1,1,,
265,200000A13N,CURSO INTEGRADOR EN GESTION DEL MARKETING,jrivadeney@utp.edu.pe,ipachecom@utp.edu.pe,1,1,,
266,100000A31N,TALLER DE INVESTIGACIÓN – ADMINISTRACIÓN Y MARKETING,jrivadeney@utp.edu.pe,ipachecom@utp.edu.pe,1,1,,
267,100000AN35,FORMACION DE EMPRESAS EXPORTADORAS,jrivadeney@utp.edu.pe,lperaltal@utp.edu.pe,1,1,,
268,100000AN43,NOMENCLATURA ARANCELARIA Y TRIBUTACION DEL COMERCIO EXTERIOR,jrivadeney@utp.edu.pe,lperaltal@utp.edu.pe,1,1,,
269,100000AN66,DIRECCION DE COMERCIO INTERNACIONAL,jrivadeney@utp.edu.pe,lperaltal@utp.edu.pe,1,1,,
270,100000AN68,ESTRUCTURACION DE NEGOCIOS GLOBALES,jrivadeney@utp.edu.pe,lperaltal@utp.edu.pe,1,1,,
271,100000AN70,CONTRATACION Y NEGOCIACION INTERNACIONAL,jrivadeney@utp.edu.pe,lperaltal@utp.edu.pe,1,1,,
272,100000AN73,VALORACION ADUANERA,jrivadeney@utp.edu.pe,lperaltal@utp.edu.pe,1,1,,
273,100000AN74,DERECHO DEL COMERCIO INTERNACIONAL,jrivadeney@utp.edu.pe,lperaltal@utp.edu.pe,1,1,,
274,100000A01N,ESTRATEGIAS EN NEGOCIOS INTERNACIONAL,jrivadeney@utp.edu.pe,lperaltal@utp.edu.pe,1,1,,
275,100000A21N,FINANCIACION DE NEGOCIOS INTERNACIONAL,jrivadeney@utp.edu.pe,lperaltal@utp.edu.pe,1,1,,
276,100000A35N,OPERACIONES DE EXPORTACION E IMPORTACIÓN,jrivadeney@utp.edu.pe,lperaltal@utp.edu.pe,1,1,,
277,200000AN69,ACUERDOS COMERCIALES Y LEGISLACION EN COMERCIO EXTERIOR,jrivadeney@utp.edu.pe,lperaltal@utp.edu.pe,1,1,,
278,100000A04N,CURSO INTEGRADOR EN GESTION DE NEGOCIOS INTERNACIONALES,jrivadeney@utp.edu.pe,lperaltal@utp.edu.pe,1,1,,
279,100000A23N,TALLER DE INVESTIGACIÓN - ADMINISTRACIÓN DE NEGOCIOS INTERNACIONALES,jrivadeney@utp.edu.pe,lperaltal@utp.edu.pe,1,1,,
280,100000A941,SIMULACION EMPRESARIAL,jrivadeney@utp.edu.pe,ecespedesa@utp.edu.pe,1,1,,
281,100000A17N,TALLER DE INVESTIGACIÓN – ADMINISTRACIÓN DE EMPRESAS,jrivadeney@utp.edu.pe,ecespedesa@utp.edu.pe,1,1,,
282,100000A28N,TALLER DE INVESTIGACIÓN - ADMINISTRACIÓN HOTELERA Y TURISMO,jrivadeney@utp.edu.pe,ecespedesa@utp.edu.pe,1,1,,
283,100000A194,GESTION DE IMPORTACIONES,jrivadeney@utp.edu.pe,lperaltal@utp.edu.pe,1,1,,
284,100000AN10,INTRODUCCION A LOS NEGOCIOS INTERNACIONALES,jrivadeney@utp.edu.pe,lperaltal@utp.edu.pe,1,1,,
285,100000AN27,POLITICAS DE COMERCIO INTERNACIONAL,jrivadeney@utp.edu.pe,lperaltal@utp.edu.pe,1,1,,
286,100000AN33,ANALISIS E INVESTIGACION DE MERCADOS INTERNACIONALES,jrivadeney@utp.edu.pe,lperaltal@utp.edu.pe,1,1,,
287,100000AN67,"ENVASES, EMBALAJES Y SISTEMAS DE INFRAESTRUCTURA INTERNACIONAL",jrivadeney@utp.edu.pe,lperaltal@utp.edu.pe,1,1,,
288,100000AN71,LOGISTICA INTERNACIONAL,jrivadeney@utp.edu.pe,lperaltal@utp.edu.pe,1,1,,
289,100000AN72,MARKETING INTERNACIONAL,jrivadeney@utp.edu.pe,lperaltal@utp.edu.pe,1,1,,
290,100000A02N,FERIAS Y MISIONES INTERNACIONALES,jrivadeney@utp.edu.pe,lperaltal@utp.edu.pe,1,1,,
291,100000A03N,FINANZAS INTERNACIONALES,jrivadeney@utp.edu.pe,lperaltal@utp.edu.pe,1,1,,
292,100000A22N,GERENCIA INTERNACIONAL AVANZADA,jrivadeney@utp.edu.pe,lperaltal@utp.edu.pe,1,1,,
293,100000A202,PROMOCIÓN Y OFERTA EXPORTABLES,jrivadeney@utp.edu.pe,lperaltal@utp.edu.pe,1,1,,
294,100000A678,INTERCULTURALIDAD Y NEGOCIOS INTERNACIONALES,jrivadeney@utp.edu.pe,lperaltal@utp.edu.pe,1,1,,
295,100000A201,TRANSPORTE INTERNACIONAL,jrivadeney@utp.edu.pe,lperaltal@utp.edu.pe,1,1,,
296,100000CP89,BRANDING,lcardenas@utp.edu.pe,zmanzaneda@utp.edu.pe,1,1,,
297,100000C23P,BRANDING PUBLICITARIO,lcardenas@utp.edu.pe,zmanzaneda@utp.edu.pe,1,1,,
298,100000CP39,FUNDAMENTOS DE MARKETING Y PUBLICIDAD,lcardenas@utp.edu.pe,zmanzaneda@utp.edu.pe,1,1,,
299,100000C10P,TALLER DE FOTOGRAFÍA PUBLICITARIA,lcardenas@utp.edu.pe,zmanzaneda@utp.edu.pe,1,1,,
300,100000C33P,CURSO INTEGRADOR I - COMUNICACIÓN Y PUBLICIDAD,lcardenas@utp.edu.pe,zmanzaneda@utp.edu.pe,1,1,,
301,100000CP76,ESTRATEGIAS CREATIVAS PUBLICITARIAS,lcardenas@utp.edu.pe,zmanzaneda@utp.edu.pe,1,1,,
302,100000CP85,DUPLA CREATIVA,lcardenas@utp.edu.pe,zmanzaneda@utp.edu.pe,1,1,,
303,100000CP86,ESTRATEGIAS PROMOCIONALES,lcardenas@utp.edu.pe,zmanzaneda@utp.edu.pe,1,1,,
304,100000CP90,INSIGHTS DEL CONSUMIDOR,lcardenas@utp.edu.pe,zmanzaneda@utp.edu.pe,1,1,,
305,100000CP91,TALLER DE MARKETING ON LINE I,lcardenas@utp.edu.pe,zmanzaneda@utp.edu.pe,1,1,,
306,100000CP56,ESTRATEGIAS DE MARKETING,lcardenas@utp.edu.pe,zmanzaneda@utp.edu.pe,1,1,,
307,100000CP88,SEMIÓTICA DE LA PUBLICIDAD,lcardenas@utp.edu.pe,zmanzaneda@utp.edu.pe,1,1,,
308,100000CP92,SEMINARIO DE CUENTAS,lcardenas@utp.edu.pe,zmanzaneda@utp.edu.pe,1,1,,
309,100000CP97,TALLER DE CAMPAÑAS PUBLICITARIAS,lcardenas@utp.edu.pe,zmanzaneda@utp.edu.pe,1,1,,
310,100000CP95,POST PRODUCCIÓN DE AUDIO,lcardenas@utp.edu.pe,zmanzaneda@utp.edu.pe,1,1,,
311,100000CP94,PLANES DE MEDIOS PUBLICITARIOS,lcardenas@utp.edu.pe,zmanzaneda@utp.edu.pe,1,1,,
312,100000CF17,CONTABILIDAD DE SOCIEDADES,aurquizo@utp.edu.pe,ichambergc@utp.edu.pe,1,1,,
316,100000CF25,COSTOS COMERCIALES Y DE SERVICIOS,aurquizo@utp.edu.pe,ichambergc@utp.edu.pe,1,1,,
317,100000I86N,TOPOGRAFÍA,jorccosupa@utp.edu.pe,rvarillas@utp.edu.pe,1,1,,
318,100000C03V,MATERIALES DE CONSTRUCCIÓN,jorccosupa@utp.edu.pe,rvarillas@utp.edu.pe,1,1,,
319,200000N21F,INTRODUCCIÓN A LA NUTRICIÓN,dchampin@utp.edu.pe,mvillalobo@utp.edu.pe,1,1,,
320,100000N44F,SISTEMAS INTEGRADOS DE GESTIÓN MINERA,aportocarr@utp.edu.pe,c16249@utp.edu.pe,1,1,,
321,100000NI42,PLANIFICACIÓN Y CONTROL DE PROYECTOS DE CONSTRUCCIÓN,pvera@utp.edu.pe,jbejaranob@utp.edu.pe,1,1,,
322,100000N12F,ELECTROTECNIA,jpierola@utp.edu.pe,vguillen@grupoutp.edu.pe,1,1,,
323,100000W34R,PRUEBAS DE VEHÍCULOS,jpierola@utp.edu.pe,vguillen@grupoutp.edu.pe,1,1,,
324,100000I68N,GESTION DE DATA CENTER,lpinedo@utp.edu.pe,jvelarde@utp.edu.pe,1,1,,2ª update 20/02
325,100000A17N,TALLER DE INVESTIGACIÓN – ADMINISTRACIÓN DE EMPRESAS,jrivadeney@utp.edu.pe,fcurasi@utp.edu.pe,1,1,,3ª update 27/02
326,100000A28N,Taller de Investigación – Administración Hotelera y de Turismo,jrivadeney@utp.edu.pe,cwarthon@utp.edu.pe,1,1,,
327,100000A941,SIMULACION EMPRESARIAL,jrivadeney@utp.edu.pe,kanticona@utp.edu.pe,1,1,,
328,100000E09P,CURSO INTEGRADOR I: DISEÑO ELECTRICO,gromero@utp.edu.pe,apacheco@utp.edu.pe,1,1,,
329,100000NI04,FORMACIÓN PARA LA INVESTIGACIÓN – INDUSTRIAL,maguirre@utp.edu.pe,gcarrillo@utp.edu.pe,1,1,,
330,100000C53F,AUDITORIA DE GESTIÓN EMPRESARIAL,aportocarr@utp.edu.pe,wchavez@utp.edu.pe,1,1,,
331,100000C56F,AUDITORÍA GUBERNAMENTAL,aportocarr@utp.edu.pe,wchavez@utp.edu.pe,1,1,,
332,100000C49F,FINANZAS CORPORATIVAS E INTERNACIONALES,aportocarr@utp.edu.pe,wchavez@utp.edu.pe,1,1,,
333,100000C51F,TRIBUTACIÓN ADUANERA E INTERNACIONAL,aportocarr@utp.edu.pe,wchavez@utp.edu.pe,1,1,,
334,100000C47F,CONTABILIDAD TRIBUTARIA,aportocarr@utp.edu.pe,wchavez@utp.edu.pe,1,1,,
335,100000C50F,GABINETE CONTABLE,aportocarr@utp.edu.pe,wchavez@utp.edu.pe,1,1,,
336,100000C54F,AUDITORÍA TRIBUTARIA,aportocarr@utp.edu.pe,wchavez@utp.edu.pe,1,1,,
337,100000C64F,CONTABILIDAD MINERA,aportocarr@utp.edu.pe,wchavez@utp.edu.pe,1,1,,
338,100000DH02,HISTORIA DEL DERECHO,dmalapi@utp.edu.pe,gespejo@utp.edu.pe,1,1,,
339,100000CF21,ESTADOS FINANCIEROS,aurquizo@utp.edu.pe,aurquizo@utp.edu.pe,1,1,,
340,100000C10P,TALLER DE FOTOGRAFÍA PUBLICITARIA,lcardenas@utp.edu.pe,rdiaz@utp.edu.pe,1,1,,
341,100000CP66,GESTIÓN DE REDES SOCIALES (COMMUNITY MANAGER),lcardenas@utp.edu.pe,omonzon@utp.edu.pe,1,1,,
342,100000CP57,LEGISLACIÓN DE LA COMUNICACIÓN,lcardenas@utp.edu.pe,omonzon@utp.edu.pe,1,1,,
343,100000AN36,INVESTIGACION OPERATIVA,eholguin@utp.edu.pe,ocuya@utp.edu.pe,1,1,,3ª update 27/02
344,100000S01I,INVESTIGACION OPERATIVA,eholguin@utp.edu.pe,ocuya@utp.edu.pe,1,1,1,pendiente
345,100000AN36,INVESTIGACION OPERATIVA,jrivadeney@utp.edu.pe,fcurasi@utp.edu.pe,1,1,1,
346,100000N05A,CURSO INTEGRADOR II ,lcardenas@utp.edu.pe,omonzon@utp.edu.pe,1,1,1,
347,100000CP95,POST PRODUCCIÓN DE RADIO ,lcardenas@utp.edu.pe,rdiaz@utp.edu.pe,1,1,1,
348,100000C14P,DISEÑO WEB,mdasilva@utp.edu.pe,evasquezy@utp.edu.pe,1,1,1,
349,100000PS62,INTERNADO II,ejefferson@utp.edu.pe,agonzalesa@utp.edu.pe,1,1,1,
350,100000C27V,EDIFICIOS,jorccosupa@utp.edu.pe,bvilavila@utp.edu.pe,1,1,1,
351,100000C26V,INGENIERIA SISMORRESISTENTE,jorccosupa@utp.edu.pe,bvilavila@utp.edu.pe,1,1,1,
352,100000C24V,CURSO INTEGRADOR II - CIVIL,jorccosupa@utp.edu.pe,bvilavila@utp.edu.pe,1,1,1,
353,100000C28V,GESTION DE LA CALIDAD EN LA CONSTRUCCION,pvera@utp.edu.pe,jbejaranob@utp.edu.pe,1,1,1,
354,100000C21V,INGENIERIA DE TRANSPORTE,pvera@utp.edu.pe,jbejaranob@utp.edu.pe,1,1,1,
355,100000PS56,FORMACIÓN PARA LA INVESTIGACIÓN EN PSICOLOGÍA,maguirre@utp.edu.pe,gcarrillo@utp.edu.pe,1,1,1,
356,100000CP96,PLANING ESTRATÉGICO,lcardenas@utp.edu.pe,zmanzaneda@utp.edu.pe,1,1,1,
357,100000CP98,MARKETING SOCIAL,lcardenas@utp.edu.pe,zmanzaneda@utp.edu.pe,1,1,1,
358,100000M03T,ELASTICIDAD Y RESISTENCIA DE MATERIALES,jpierola@utp.edu.pe,edominguez@utp.edu.pe,1,1,1,
359,100000I78N,MECANICA DE FLUIDOS,jpierola@utp.edu.pe,edominguez@utp.edu.pe,1,1,1,
360,100000I72N,ESTATICA,jpierola@utp.edu.pe,ecuty@utp.edu.pe,1,1,1,
361,100000I76N,DINAMICA,jpierola@utp.edu.pe,ecuty@utp.edu.pe,1,1,1,
362,100000A08T,DISEÑO DE TALLERES DE MANTENIM,jpierola@utp.edu.pe,amejiar@utp.edu.pe,1,1,1,
363,100000A13T,CHASIS Y CARROCERIAS DE VEHICU,jpierola@utp.edu.pe,amejiar@utp.edu.pe,1,1,1,
364,,,,,,,,
365,,,,,,,,
366,,,,,,,,